<?xml version="1.0" encoding="UTF-8"?>
<svg width="531px" height="210px" viewBox="0 0 531 210" version="1.1" xmlns="http://www.w3.org/2000/svg" xmlns:xlink="http://www.w3.org/1999/xlink">
    <!-- Generator: Sketch 48.2 (47327) - http://www.bohemiancoding.com/sketch -->
    <title>Page 1@3x</title>
    <desc>Created with Sketch.</desc>
    <defs>
        <filter x="-1.1%" y="-2.9%" width="102.1%" height="111.7%" filterUnits="objectBoundingBox" id="filter-1">
            <feOffset dx="0" dy="12" in="SourceAlpha" result="shadowOffsetOuter1"></feOffset>
            <feColorMatrix values="0 0 0 0 0.707669005   0 0 0 0 0.707669005   0 0 0 0 0.572412192  0 0 0 0.218353714 0" type="matrix" in="shadowOffsetOuter1" result="shadowMatrixOuter1"></feColorMatrix>
            <feMerge>
                <feMergeNode in="shadowMatrixOuter1"></feMergeNode>
                <feMergeNode in="SourceGraphic"></feMergeNode>
            </feMerge>
        </filter>
        <polygon id="path-2" points="0 205 569.169 205 569.169 0.396 0 0.396"></polygon>
        <path d="M81.554,0.688 C67.148,18.153 52.413,37.358 37.352,58.314 C22.29,79.269 10.064,98.26 0.681,115.285 L11.814,148.683 L81.554,148.683 L81.554,187.318 L138.853,187.318 L138.853,148.683 L167.012,148.683 L167.012,110.701 L138.853,110.701 L138.853,0.688 M82.536,52.748 L82.536,110.701 L44.883,110.701 C57.54,89.967 70.095,70.648 82.536,52.748" id="path-4"></path>
        <path d="M81.554,0.688 C67.148,18.153 52.413,37.358 37.352,58.314 C22.29,79.269 10.064,98.26 0.681,115.285 L11.814,148.683 L81.554,148.683 L81.554,187.318 L138.853,187.318 L138.853,148.683 L167.012,148.683 L167.012,110.701 L138.853,110.701 L138.853,0.688 M82.536,52.748 L82.536,110.701 L44.883,110.701 C57.54,89.967 70.095,70.648 82.536,52.748" id="path-6"></path>
        <path d="M81.554,0.688 C67.148,18.153 52.413,37.358 37.352,58.314 C22.29,79.269 10.064,98.26 0.681,115.285 L11.814,148.683 L81.554,148.683 L81.554,187.318 L138.853,187.318 L138.853,148.683 L167.012,148.683 L167.012,110.701 L138.853,110.701 L138.853,0.688 M82.536,52.748 L82.536,110.701 L44.883,110.701 C57.54,89.967 70.095,70.648 82.536,52.748" id="path-8"></path>
        <path d="M81.554,0.688 C67.148,18.153 52.413,37.358 37.352,58.314 C22.29,79.269 10.064,98.26 0.681,115.285 L11.814,148.683 L81.554,148.683 L81.554,187.318 L138.853,187.318 L138.853,148.683 L167.012,148.683 L167.012,110.701 L138.853,110.701 L138.853,0.688 M82.536,52.748 L82.536,110.701 L44.883,110.701 C57.54,89.967 70.095,70.648 82.536,52.748" id="path-10"></path>
    </defs>
    <g id="Desktop" stroke="none" stroke-width="1" fill="none" fill-rule="evenodd" transform="translate(-244.000000, -103.000000)">
        <g id="Page-1" filter="url(#filter-1)" transform="translate(244.000000, 102.000000)">
            <g id="Group-75" transform="translate(0.000000, 0.604000)">
                <path d="M442.2202,175.7023 C442.2202,175.7023 436.9802,173.4243 431.5112,180.4873" id="Stroke-1" stroke="#000000" stroke-width="4"></path>
                <path d="M444.3657,172.1349 C444.3657,172.1349 435.9347,176.0089 434.3407,166.4389" id="Stroke-3" stroke="#000000" stroke-width="4"></path>
                <path d="M499.0708,30.4933 C499.0708,30.4933 500.3658,21.6853 511.5048,21.1683" id="Stroke-5" stroke="#000000" stroke-width="4"></path>
                <path d="M499.0708,30.4933 C499.0708,30.4933 507.0338,26.5143 513.8348,35.3513" id="Stroke-7" stroke="#000000" stroke-width="4"></path>
                <polygon id="Fill-9" fill="#FFFFFF" points="79.7417 50.9347 37.7057 119.4857 88.7957 119.4857 88.1487 48.3487"></polygon>
                <polygon id="Fill-11" fill="#FFFFFF" points="438.6626 50.9347 396.6276 119.4857 447.7166 119.4857 447.0696 48.3487"></polygon>
                <mask id="mask-3" fill="white">
                    <use xlink:href="#path-2"></use>
                </mask>
                <g id="Clip-14"></g>
                <polygon id="Fill-13" fill="#FFFFFF" mask="url(#mask-3)" points="237.429 161.691 302.577 161.691 302.577 33.155 237.429 33.155"></polygon>
                <path d="M349.7446,36.4943 C334.4586,36.4943 322.0666,48.8873 322.0666,64.1733 L377.4236,64.1733 C377.4236,48.8873 365.0316,36.4943 349.7446,36.4943" id="Fill-15" fill="#FFD00D" mask="url(#mask-3)"></path>
                <path d="M325.7202,60.758 L373.7692,60.758 C372.1042,48.991 361.9652,39.91 349.7442,39.91 C337.5242,39.91 327.3852,48.991 325.7202,60.758 Z M380.8382,67.588 L318.6522,67.588 L318.6522,64.173 C318.6522,47.029 332.5992,33.08 349.7442,33.08 C366.8902,33.08 380.8382,47.029 380.8382,64.173 L380.8382,67.588 Z" id="Fill-16" fill="#000000" mask="url(#mask-3)"></path>
                <path d="M336.6968,92.6427 C351.9828,92.6427 364.3748,80.2497 364.3748,64.9637 L309.0178,64.9637 C309.0178,80.2497 321.4098,92.6427 336.6968,92.6427" id="Fill-17" fill="#FFB30B" mask="url(#mask-3)"></path>
                <path d="M312.6724,68.3781 C314.3374,80.1471 324.4764,89.2281 336.6964,89.2281 C348.9164,89.2281 359.0554,80.1471 360.7204,68.3781 L312.6724,68.3781 Z M336.6964,96.0581 C319.5514,96.0581 305.6034,82.1091 305.6034,64.9631 L305.6034,61.5481 L367.7894,61.5481 L367.7894,64.9631 C367.7894,82.1091 353.8414,96.0581 336.6964,96.0581 Z" id="Fill-18" fill="#000000" mask="url(#mask-3)"></path>
                <path d="M46.3764,114.7013 L84.0294,114.7013 L84.0294,56.7483 C71.5874,74.6483 59.0334,93.9673 46.3764,114.7013 Z M168.5054,152.6823 L140.3464,152.6823 L140.3464,191.3183 L83.0474,191.3183 L83.0474,152.6823 L13.3074,152.6823 L2.1744,119.2853 C11.5574,102.2603 23.7834,83.2683 38.8454,62.3133 C53.9064,41.3583 68.6414,22.1533 83.0474,4.6873 L140.3464,4.6873 L140.3464,114.7013 L168.5054,114.7013 L168.5054,152.6823 Z" id="Fill-19" fill="#FFD400" mask="url(#mask-3)"></path>
                <path d="M46.3764,114.7013 L84.0294,114.7013 L84.0294,56.7483 C71.5874,74.6483 59.0334,93.9673 46.3764,114.7013 Z M168.5054,152.6823 L140.3464,152.6823 L140.3464,191.3183 L83.0474,191.3183 L83.0474,152.6823 L13.3074,152.6823 L2.1744,119.2853 C11.5574,102.2603 23.7834,83.2683 38.8454,62.3133 C53.9064,41.3583 68.6414,22.1533 83.0474,4.6873 L140.3464,4.6873 L140.3464,114.7013 L168.5054,114.7013 L168.5054,152.6823 Z" id="Stroke-20" stroke="#000000" stroke-width="4" mask="url(#mask-3)"></path>
                <path d="M46.3764,114.7013 L84.0294,114.7013 L84.0294,56.7483 C71.5874,74.6483 59.0334,93.9673 46.3764,114.7013 Z M168.5054,152.6823 L140.3464,152.6823 L140.3464,191.3183 L83.0474,191.3183 L83.0474,152.6823 L13.3074,152.6823 L2.1744,119.2853 C11.5574,102.2603 23.7834,83.2683 38.8454,62.3133 C53.9064,41.3583 68.6414,22.1533 83.0474,4.6873 L140.3464,4.6873 L140.3464,114.7013 L168.5054,114.7013 L168.5054,152.6823 Z" id="Fill-21" fill="#FFD400" mask="url(#mask-3)"></path>
                <path d="M46.3764,114.7013 L84.0294,114.7013 L84.0294,56.7483 C71.5874,74.6483 59.0334,93.9673 46.3764,114.7013 Z M168.5054,152.6823 L140.3464,152.6823 L140.3464,191.3183 L83.0474,191.3183 L83.0474,152.6823 L13.3074,152.6823 L2.1744,119.2853 C11.5574,102.2603 23.7834,83.2683 38.8454,62.3133 C53.9064,41.3583 68.6414,22.1533 83.0474,4.6873 L140.3464,4.6873 L140.3464,114.7013 L168.5054,114.7013 L168.5054,152.6823 Z" id="Stroke-22" stroke="#000000" stroke-width="4" mask="url(#mask-3)"></path>
                <path d="M288.0132,140.4045 C291.2872,131.7845 292.9242,118.1955 292.9242,99.6395 C292.9242,80.6495 290.9602,66.6275 287.0312,57.5665 C283.1022,48.5105 275.6792,43.9785 264.7662,43.9785 C257.1232,43.9785 251.9962,45.2885 249.3772,47.9075 C247.4122,50.0915 245.7192,56.6405 244.3022,67.5525 C242.8802,78.4695 242.1742,89.6025 242.1742,100.9505 C242.1742,120.1605 244.0822,133.6925 247.9042,141.5505 C251.7202,149.4085 257.9972,153.3375 266.7312,153.3375 C277.6432,153.3375 284.7392,149.0295 288.0132,140.4045 M309.9502,9.4355 C321.9522,14.1325 331.4482,23.5145 338.4362,37.5935 C345.4192,51.6735 348.9132,72.1365 348.9132,98.9855 C348.9132,124.7445 345.5272,144.6605 338.7642,158.7405 C331.9952,172.8195 322.5562,182.4775 310.4422,187.7175 C298.3272,192.9555 283.2092,195.5755 265.0942,195.5755 C238.9002,195.5755 218.8152,188.6475 204.8482,174.7835 C190.8762,160.9255 183.8932,137.0795 183.8932,103.2415 C183.8932,69.1895 190.6572,43.8715 204.1932,27.2795 C217.7252,10.6935 237.9172,2.3955 264.7662,2.3955 C282.8822,2.3955 297.9442,4.7445 309.9502,9.4355" id="Fill-23" fill="#C7E852" mask="url(#mask-3)"></path>
                <path d="M288.0132,140.4045 C291.2872,131.7845 292.9242,118.1955 292.9242,99.6395 C292.9242,80.6495 290.9602,66.6275 287.0312,57.5665 C283.1022,48.5105 275.6792,43.9785 264.7662,43.9785 C257.1232,43.9785 251.9962,45.2885 249.3772,47.9075 C247.4122,50.0915 245.7192,56.6405 244.3022,67.5525 C242.8802,78.4695 242.1742,89.6025 242.1742,100.9505 C242.1742,120.1605 244.0822,133.6925 247.9042,141.5505 C251.7202,149.4085 257.9972,153.3375 266.7312,153.3375 C277.6432,153.3375 284.7392,149.0295 288.0132,140.4045 Z M309.9502,9.4355 C321.9522,14.1325 331.4482,23.5145 338.4362,37.5935 C345.4192,51.6735 348.9132,72.1365 348.9132,98.9855 C348.9132,124.7445 345.5272,144.6605 338.7642,158.7405 C331.9952,172.8195 322.5562,182.4775 310.4422,187.7175 C298.3272,192.9555 283.2092,195.5755 265.0942,195.5755 C238.9002,195.5755 218.8152,188.6475 204.8482,174.7835 C190.8762,160.9255 183.8932,137.0795 183.8932,103.2415 C183.8932,69.1895 190.6572,43.8715 204.1932,27.2795 C217.7252,10.6935 237.9172,2.3955 264.7662,2.3955 C282.8822,2.3955 297.9442,4.7445 309.9502,9.4355 Z" id="Stroke-24" stroke="#000000" stroke-width="4" mask="url(#mask-3)"></path>
                <path d="M405.8833,114.7013 L443.5363,114.7013 L443.5363,56.7483 C431.0943,74.6483 418.5403,93.9673 405.8833,114.7013 Z M528.0123,152.6823 L499.8533,152.6823 L499.8533,191.3183 L442.5543,191.3183 L442.5543,152.6823 L372.8143,152.6823 L361.6813,119.2853 C371.0643,102.2603 383.2903,83.2683 398.3523,62.3133 C413.4133,41.3583 428.1483,22.1533 442.5543,4.6873 L499.8533,4.6873 L499.8533,114.7013 L528.0123,114.7013 L528.0123,152.6823 Z" id="Fill-25" fill="#7897A3" mask="url(#mask-3)"></path>
                <path d="M405.8833,114.7013 L443.5363,114.7013 L443.5363,56.7483 C431.0943,74.6483 418.5403,93.9673 405.8833,114.7013 Z M528.0123,152.6823 L499.8533,152.6823 L499.8533,191.3183 L442.5543,191.3183 L442.5543,152.6823 L372.8143,152.6823 L361.6813,119.2853 C371.0643,102.2603 383.2903,83.2683 398.3523,62.3133 C413.4133,41.3583 428.1483,22.1533 442.5543,4.6873 L499.8533,4.6873 L499.8533,114.7013 L528.0123,114.7013 L528.0123,152.6823 Z" id="Stroke-26" stroke="#000000" stroke-width="4" mask="url(#mask-3)"></path>
                <path d="M82.397,5.4836 C74.987,14.4896 67.488,23.9606 59.903,33.8866 C62.884,36.0326 66.532,37.3106 70.486,37.3106 C80.51,37.3106 88.637,29.1836 88.637,19.1586 C88.637,13.6976 86.213,8.8116 82.397,5.4836" id="Fill-27" fill="#F4A300" mask="url(#mask-3)"></path>
                <path d="M82.397,5.4836 C74.987,14.4896 67.488,23.9606 59.903,33.8866 C62.884,36.0326 66.532,37.3106 70.486,37.3106 C80.51,37.3106 88.637,29.1836 88.637,19.1586 C88.637,13.6976 86.213,8.8116 82.397,5.4836 Z" id="Stroke-28" stroke="#000000" stroke-width="4" mask="url(#mask-3)"></path>
                <path d="M109.6772,40.1984 C109.6772,44.7554 105.9832,48.4494 101.4262,48.4494 C96.8692,48.4494 93.1752,44.7554 93.1752,40.1984 C93.1752,35.6414 96.8692,31.9474 101.4262,31.9474 C105.9832,31.9474 109.6772,35.6414 109.6772,40.1984" id="Fill-29" fill="#F4A300" mask="url(#mask-3)"></path>
                <path d="M109.6772,40.1984 C109.6772,44.7554 105.9832,48.4494 101.4262,48.4494 C96.8692,48.4494 93.1752,44.7554 93.1752,40.1984 C93.1752,35.6414 96.8692,31.9474 101.4262,31.9474 C105.9832,31.9474 109.6772,35.6414 109.6772,40.1984 Z" id="Stroke-30" stroke="#000000" stroke-width="4" mask="url(#mask-3)"></path>
                <path d="M127.8286,91.7658 C127.8286,97.4618 123.2116,102.0788 117.5156,102.0788 C111.8196,102.0788 107.2016,97.4618 107.2016,91.7658 C107.2016,86.0698 111.8196,81.4528 117.5156,81.4528 C123.2116,81.4528 127.8286,86.0698 127.8286,91.7658" id="Fill-31" fill="#F4A300" mask="url(#mask-3)"></path>
                <path d="M127.8286,91.7658 C127.8286,97.4618 123.2116,102.0788 117.5156,102.0788 C111.8196,102.0788 107.2016,97.4618 107.2016,91.7658 C107.2016,86.0698 111.8196,81.4528 117.5156,81.4528 C123.2116,81.4528 127.8286,86.0698 127.8286,91.7658 Z" id="Stroke-32" stroke="#000000" stroke-width="4" mask="url(#mask-3)"></path>
                <path d="M106.7896,70.3136 C106.7896,73.9596 103.8346,76.9146 100.1886,76.9146 C96.5436,76.9146 93.5886,73.9596 93.5886,70.3136 C93.5886,66.6676 96.5436,63.7126 100.1886,63.7126 C103.8346,63.7126 106.7896,66.6676 106.7896,70.3136" id="Fill-33" fill="#F4A300" mask="url(#mask-3)"></path>
                <path d="M106.7896,70.3136 C106.7896,73.9596 103.8346,76.9146 100.1886,76.9146 C96.5436,76.9146 93.5886,73.9596 93.5886,70.3136 C93.5886,66.6676 96.5436,63.7126 100.1886,63.7126 C103.8346,63.7126 106.7896,66.6676 106.7896,70.3136 Z" id="Stroke-34" stroke="#000000" stroke-width="4" mask="url(#mask-3)"></path>
                <path d="M130.3042,138.7961 C130.3042,146.0861 124.3942,151.9971 117.1032,151.9971 C109.8122,151.9971 103.9022,146.0861 103.9022,138.7961 C103.9022,131.5051 109.8122,125.5941 117.1032,125.5941 C124.3942,125.5941 130.3042,131.5051 130.3042,138.7961" id="Fill-35" fill="#F4A300" mask="url(#mask-3)"></path>
                <path d="M130.3042,138.7961 C130.3042,146.0861 124.3942,151.9971 117.1032,151.9971 C109.8122,151.9971 103.9022,146.0861 103.9022,138.7961 C103.9022,131.5051 109.8122,125.5941 117.1032,125.5941 C124.3942,125.5941 130.3042,131.5051 130.3042,138.7961 Z" id="Stroke-36" stroke="#000000" stroke-width="4" mask="url(#mask-3)"></path>
                <path d="M80.7993,137.1457 C80.7993,141.2467 77.4743,144.5717 73.3733,144.5717 C69.2723,144.5717 65.9473,141.2467 65.9473,137.1457 C65.9473,133.0437 69.2723,129.7197 73.3733,129.7197 C77.4743,129.7197 80.7993,133.0437 80.7993,137.1457" id="Fill-37" fill="#F4A300" mask="url(#mask-3)"></path>
                <path d="M80.7993,137.1457 C80.7993,141.2467 77.4743,144.5717 73.3733,144.5717 C69.2723,144.5717 65.9473,141.2467 65.9473,137.1457 C65.9473,133.0437 69.2723,129.7197 73.3733,129.7197 C77.4743,129.7197 80.7993,133.0437 80.7993,137.1457 Z" id="Stroke-38" stroke="#000000" stroke-width="4" mask="url(#mask-3)"></path>
                <path d="M126.1704,19.5138 C126.1704,22.0778 124.0914,24.1578 121.5264,24.1578 C118.9624,24.1578 116.8834,22.0778 116.8834,19.5138 C116.8834,16.9498 118.9624,14.8698 121.5264,14.8698 C124.0914,14.8698 126.1704,16.9498 126.1704,19.5138" id="Fill-39" fill="#F4A300" mask="url(#mask-3)"></path>
                <path d="M126.1704,19.5138 C126.1704,22.0778 124.0914,24.1578 121.5264,24.1578 C118.9624,24.1578 116.8834,22.0778 116.8834,19.5138 C116.8834,16.9498 118.9624,14.8698 121.5264,14.8698 C124.0914,14.8698 126.1704,16.9498 126.1704,19.5138 Z" id="Stroke-40" stroke="#000000" stroke-width="4" mask="url(#mask-3)"></path>
                <path d="M156.6587,140.382 C156.6587,142.946 154.5797,145.026 152.0147,145.026 C149.4507,145.026 147.3717,142.946 147.3717,140.382 C147.3717,137.818 149.4507,135.738 152.0147,135.738 C154.5797,135.738 156.6587,137.818 156.6587,140.382" id="Fill-41" fill="#F4A300" mask="url(#mask-3)"></path>
                <path d="M156.6587,140.382 C156.6587,142.946 154.5797,145.026 152.0147,145.026 C149.4507,145.026 147.3717,142.946 147.3717,140.382 C147.3717,137.818 149.4507,135.738 152.0147,135.738 C154.5797,135.738 156.6587,137.818 156.6587,140.382 Z" id="Stroke-42" stroke="#000000" stroke-width="4" mask="url(#mask-3)"></path>
                <path d="M33.769,122.2941 C33.769,126.1671 30.629,129.3071 26.756,129.3071 C22.883,129.3071 19.743,126.1671 19.743,122.2941 C19.743,118.4211 22.883,115.2801 26.756,115.2801 C30.629,115.2801 33.769,118.4211 33.769,122.2941" id="Fill-43" fill="#F4A300" mask="url(#mask-3)"></path>
                <path d="M33.769,122.2941 C33.769,126.1671 30.629,129.3071 26.756,129.3071 C22.883,129.3071 19.743,126.1671 19.743,122.2941 C19.743,118.4211 22.883,115.2801 26.756,115.2801 C30.629,115.2801 33.769,118.4211 33.769,122.2941 Z" id="Stroke-44" stroke="#000000" stroke-width="4" mask="url(#mask-3)"></path>
                <path d="M13.3071,152.6828 L32.4981,152.6828 C29.9421,143.9458 21.8811,137.5578 12.3171,137.5578 C10.9741,137.5578 9.6641,137.6968 8.3921,137.9378 L13.3071,152.6828 Z" id="Fill-45" fill="#F4A300" mask="url(#mask-3)"></path>
                <path d="M13.3071,152.6828 L32.4981,152.6828 C29.9421,143.9458 21.8811,137.5578 12.3171,137.5578 C10.9741,137.5578 9.6641,137.6968 8.3921,137.9378 L13.3071,152.6828 Z" id="Stroke-46" stroke="#000000" stroke-width="4" mask="url(#mask-3)"></path>
                <path d="M106.7896,177.1623 C99.0426,177.1623 92.7636,183.4413 92.7636,191.1883 C92.7636,191.2323 92.7686,191.2743 92.7696,191.3183 L120.8096,191.3183 C120.8096,191.2743 120.8156,191.2323 120.8156,191.1883 C120.8156,183.4413 114.5356,177.1623 106.7896,177.1623" id="Fill-47" fill="#F4A300" mask="url(#mask-3)"></path>
                <path d="M106.7896,177.1623 C99.0426,177.1623 92.7636,183.4413 92.7636,191.1883 C92.7636,191.2323 92.7686,191.2743 92.7696,191.3183 L120.8096,191.3183 C120.8096,191.2743 120.8156,191.2323 120.8156,191.1883 C120.8156,183.4413 114.5356,177.1623 106.7896,177.1623 Z" id="Stroke-48" stroke="#000000" stroke-width="4" mask="url(#mask-3)"></path>
                <path d="M154.312,114.7013 C154.312,122.5403 160.666,128.8943 168.505,128.8943 L168.505,114.7013 L154.312,114.7013 Z" id="Fill-49" fill="#F4A300" mask="url(#mask-3)"></path>
                <path d="M154.312,114.7013 C154.312,122.5403 160.666,128.8943 168.505,128.8943 L168.505,114.7013 L154.312,114.7013 Z" id="Stroke-50" stroke="#000000" stroke-width="4" mask="url(#mask-3)"></path>
                <path d="M140.3462,35.548 C132.8192,38.212 127.4162,45.372 127.4162,53.813 C127.4162,62.252 132.8192,69.412 140.3462,72.076 L140.3462,35.548 Z" id="Fill-51" fill="#F4A300" mask="url(#mask-3)"></path>
                <path d="M140.3462,35.548 C132.8192,38.212 127.4162,45.372 127.4162,53.813 C127.4162,62.252 132.8192,69.412 140.3462,72.076 L140.3462,35.548 Z" id="Stroke-52" stroke="#000000" stroke-width="4" mask="url(#mask-3)"></path>
                <path d="M27.5893,78.3859 C28.8983,78.7639 30.2763,78.9769 31.7063,78.9769 C39.9083,78.9769 46.5583,72.3279 46.5583,64.1259 C46.5583,60.9059 45.5223,57.9329 43.7803,55.4999 C42.1393,57.7529 40.4943,60.0189 38.8453,62.3139 C34.8973,67.8079 31.1483,73.1619 27.5893,78.3859" id="Fill-53" fill="#F4A300" mask="url(#mask-3)"></path>
                <path d="M27.5893,78.3859 C28.8983,78.7639 30.2763,78.9769 31.7063,78.9769 C39.9083,78.9769 46.5583,72.3279 46.5583,64.1259 C46.5583,60.9059 45.5223,57.9329 43.7803,55.4999 C42.1393,57.7529 40.4943,60.0189 38.8453,62.3139 C34.8973,67.8079 31.1483,73.1619 27.5893,78.3859 Z" id="Stroke-54" stroke="#000000" stroke-width="4" mask="url(#mask-3)"></path>
                <path d="M52.7466,90.5285 C52.7466,93.7175 50.1606,96.3035 46.9716,96.3035 C43.7806,96.3035 41.1946,93.7175 41.1946,90.5285 C41.1946,87.3395 43.7806,84.7535 46.9716,84.7535 C50.1606,84.7535 52.7466,87.3395 52.7466,90.5285" id="Fill-55" fill="#F4A300" mask="url(#mask-3)"></path>
                <path d="M52.7466,90.5285 C52.7466,93.7175 50.1606,96.3035 46.9716,96.3035 C43.7806,96.3035 41.1946,93.7175 41.1946,90.5285 C41.1946,87.3395 43.7806,84.7535 46.9716,84.7535 C50.1606,84.7535 52.7466,87.3395 52.7466,90.5285 Z" id="Stroke-56" stroke="#000000" stroke-width="4" mask="url(#mask-3)"></path>
                <path d="M276.3286,93.1838 C274.8206,93.1838 273.5986,91.9618 273.5986,90.4548 C273.5986,87.3388 271.0636,84.8038 267.9486,84.8038 C264.8336,84.8038 262.2996,87.3388 262.2996,90.4548 C262.2996,91.9618 261.0766,93.1838 259.5686,93.1838 C258.0616,93.1838 256.8396,91.9618 256.8396,90.4548 C256.8396,84.3288 261.8226,79.3438 267.9486,79.3438 C274.0746,79.3438 279.0576,84.3288 279.0576,90.4548 C279.0576,91.9618 277.8356,93.1838 276.3286,93.1838" id="Fill-57" fill="#000000" mask="url(#mask-3)"></path>
                <path d="M204.8481,174.7834 C214.1821,184.0494 226.2641,190.1984 241.0591,193.2704 L241.0591,192.8034 C241.0591,163.6594 217.4341,140.0334 188.2891,140.0334 L188.2891,143.4294 C191.7571,156.8144 197.2741,167.2694 204.8481,174.7834" id="Fill-58" fill="#7683FF" mask="url(#mask-3)"></path>
                <path d="M204.8481,174.7834 C214.1821,184.0494 226.2641,190.1984 241.0591,193.2704 L241.0591,192.8034 C241.0591,163.6594 217.4341,140.0334 188.2891,140.0334 L188.2891,143.4294 C191.7571,156.8144 197.2741,167.2694 204.8481,174.7834 Z" id="Stroke-59" stroke="#000000" stroke-width="4" mask="url(#mask-3)"></path>
                <g id="Group-62" mask="url(#mask-3)">
                    <g transform="translate(201.000000, 68.000000)">
                        <path d="M6.5454,22.0412 C6.5454,22.0412 -3.8446,12.5972 2.2954,0.7902 C2.2954,0.7902 9.8524,-1.5708 14.5734,14.0132" id="Fill-60" stroke="none" fill="#C7E852" fill-rule="evenodd"></path>
                        <path d="M6.5454,22.0412 C6.5454,22.0412 -3.8446,12.5972 2.2954,0.7902 C2.2954,0.7902 9.8524,-1.5708 14.5734,14.0132" id="Stroke-61" stroke="#000000" stroke-width="4" fill="none"></path>
                    </g>
                </g>
                <g id="Group-65" mask="url(#mask-3)">
                    <g transform="translate(298.000000, 145.000000)">
                        <path d="M0.8892,5.1623 C0.8892,5.1623 11.3142,-4.2437 22.4562,3.0303 C22.4562,3.0303 24.0612,10.7823 8.0862,13.9433" id="Fill-63" stroke="none" fill="#C7E852" fill-rule="evenodd"></path>
                        <path d="M0.8892,5.1623 C0.8892,5.1623 11.3142,-4.2437 22.4562,3.0303 C22.4562,3.0303 24.0612,10.7823 8.0862,13.9433" id="Stroke-64" stroke="#000000" stroke-width="4" fill="none"></path>
                    </g>
                </g>
                <g id="Group-68" mask="url(#mask-3)">
                    <g transform="translate(295.000000, 162.000000)">
                        <path d="M0.3872,0.3625 C0.3872,0.3625 12.4542,-0.5445 16.2062,10.2945 C16.2062,10.2945 13.2072,16.4225 0.6552,10.1435" id="Fill-66" stroke="none" fill="#C7E852" fill-rule="evenodd"></path>
                        <path d="M0.3872,0.3625 C0.3872,0.3625 12.4542,-0.5445 16.2062,10.2945 C16.2062,10.2945 13.2072,16.4225 0.6552,10.1435" id="Stroke-67" stroke="#000000" stroke-width="4" fill="none"></path>
                    </g>
                </g>
                <g id="Group-71" mask="url(#mask-3)">
                    <g transform="translate(195.000000, 95.000000)">
                        <path d="M13.2348,19.2765 C13.2348,19.2765 -0.1322,14.9775 0.5708,1.6895 C0.5708,1.6895 6.4708,-3.5875 17.2198,8.6455" id="Fill-69" stroke="none" fill="#C7E852" fill-rule="evenodd"></path>
                        <path d="M13.2348,19.2765 C13.2348,19.2765 -0.1322,14.9775 0.5708,1.6895 C0.5708,1.6895 6.4708,-3.5875 17.2198,8.6455" id="Stroke-70" stroke="#000000" stroke-width="4" fill="none"></path>
                    </g>
                </g>
                <g id="Group-74" mask="url(#mask-3)">
                    <g transform="translate(206.000000, 122.000000)">
                        <path d="M14.3696,11.8293 C14.3696,11.8293 3.5986,12.7313 0.1636,3.0803 C0.1636,3.0803 2.7956,-2.4157 14.0556,3.0943" id="Fill-72" stroke="none" fill="#C7E852" fill-rule="evenodd"></path>
                        <path d="M14.3696,11.8293 C14.3696,11.8293 3.5986,12.7313 0.1636,3.0803 C0.1636,3.0803 2.7956,-2.4157 14.0556,3.0943" id="Stroke-73" stroke="#000000" stroke-width="4" fill="none"></path>
                    </g>
                </g>
            </g>
            <g id="Group-88" transform="translate(361.000000, 4.604000)">
                <g id="Group-78">
                    <mask id="mask-5" fill="white">
                        <use xlink:href="#path-4"></use>
                    </mask>
                    <g id="Clip-77"></g>
                    <path d="M49.7788,14.591 C49.7788,14.591 87.5968,48.148 179.7468,42.289" id="Stroke-76" stroke="#000000" stroke-width="4" mask="url(#mask-5)"></path>
                </g>
                <g id="Group-81">
                    <mask id="mask-7" fill="white">
                        <use xlink:href="#path-6"></use>
                    </mask>
                    <g id="Clip-80"></g>
                    <path d="M54.8306,17.0607 C54.8306,17.0607 85.5216,57.2397 177.0876,69.1377" id="Stroke-79" stroke="#000000" stroke-width="4" mask="url(#mask-7)"></path>
                </g>
                <g id="Group-84">
                    <mask id="mask-9" fill="white">
                        <use xlink:href="#path-8"></use>
                    </mask>
                    <g id="Clip-83"></g>
                    <path d="M6.9575,104.2277 C6.9575,104.2277 49.1655,169.6297 188.2435,199.0427" id="Stroke-82" stroke="#000000" stroke-width="4" mask="url(#mask-9)"></path>
                </g>
                <g id="Group-87">
                    <mask id="mask-11" fill="white">
                        <use xlink:href="#path-10"></use>
                    </mask>
                    <g id="Clip-86"></g>
                    <path d="M26.4692,63.759 C26.4692,63.759 68.6772,129.161 207.7552,158.575" id="Stroke-85" stroke="#000000" stroke-width="4" mask="url(#mask-11)"></path>
                </g>
            </g>
            <g id="Group-95" transform="translate(393.000000, 33.604000)" stroke="#000000" stroke-width="4">
                <path d="M12.7183,19.3302 C12.7183,19.3302 11.2303,10.7012 0.8163,11.8922" id="Stroke-89"></path>
                <path d="M14.5034,16.6525 C14.5034,16.6525 6.7674,9.5105 14.8014,0.2875" id="Stroke-91"></path>
                <path d="M106.853,81.7013 C106.853,81.7013 109.136,67.0223 129.278,71.3083" id="Stroke-93"></path>
            </g>
        </g>
    </g>
</svg>