<?xml version="1.0" encoding="UTF-8"?>
<svg width="21px" height="19px" viewBox="0 0 21 19" version="1.1" xmlns="http://www.w3.org/2000/svg" xmlns:xlink="http://www.w3.org/1999/xlink">
    <!-- Generator: Sketch 48.2 (47327) - http://www.bohemiancoding.com/sketch -->
    <title>map-icon</title>
    <desc>Created with Sketch.</desc>
    <defs></defs>
    <g id="Mobile-Side-Menu" stroke="none" stroke-width="1" fill="none" fill-rule="evenodd" transform="translate(-17.000000, -245.000000)">
        <g id="map-(3)" transform="translate(17.000000, 245.000000)" fill="#FFFFFF">
            <path d="M20.7983125,3.11011905 L15.5483125,0.575880952 C15.5430625,0.574071429 15.5365,0.572261905 15.53125,0.570452381 C15.5176875,0.563666667 15.502375,0.560047619 15.486625,0.556428571 C15.4748125,0.552809524 15.46125,0.549642857 15.449,0.547833333 C15.4336875,0.544214286 15.418375,0.544214286 15.4013125,0.544214286 C15.3895,0.544214286 15.3759375,0.544214286 15.3619375,0.54602381 C15.348375,0.547833333 15.3330625,0.551452381 15.3195,0.554619048 C15.30375,0.558238095 15.2901875,0.561857143 15.276625,0.567285714 C15.271375,0.569095238 15.2665625,0.569095238 15.2630625,0.570452381 L10.5,2.68216667 L5.7369375,0.570452381 C5.7351875,0.570452381 5.732125,0.570452381 5.728625,0.569095238 C5.714625,0.561857143 5.6993125,0.560047619 5.68575,0.556428571 C5.6721875,0.551452381 5.658625,0.547833333 5.644625,0.54602381 C5.6310625,0.544214286 5.61575,0.544214286 5.6021875,0.544214286 C5.5881875,0.544214286 5.574625,0.544214286 5.5610625,0.54602381 C5.54575,0.547833333 5.5321875,0.551452381 5.5164375,0.554619048 C5.504625,0.558238095 5.4910625,0.560047619 5.4788125,0.56547619 C5.47575,0.567285714 5.47225,0.567285714 5.4705,0.567285714 L0.2205,2.73871429 C0.0870625,2.79390476 0,2.92780952 0,3.07483333 L0,18.6376429 C0,18.7579762 0.0581875,18.8692619 0.154,18.9362143 C0.21175,18.9769286 0.2804375,19 0.3504375,19 C0.392875,19 0.4375,18.9909524 0.480375,18.9733095 L5.5951875,16.8579762 L10.3635,18.9696905 C10.3665625,18.9715 10.3718125,18.9715 10.3770625,18.9733095 C10.41775,18.9891429 10.458875,19 10.5,19 C10.542875,19 10.5835625,18.9891429 10.6229375,18.9733095 C10.6281875,18.9715 10.6334375,18.9715 10.63825,18.9696905 L15.4048125,16.8579762 L20.519625,18.9733095 C20.5625,18.9909524 20.607125,19 20.6513125,19 C20.7195625,19 20.78825,18.9769286 20.84775,18.9362143 C20.9418125,18.8692619 21,18.7579762 21,18.6376429 L21,3.4367381 C21,3.29559524 20.92125,3.16847619 20.7983125,3.11011905 Z M0.700875,3.32047619 L5.25,1.43811905 L5.25,16.220119 L0.700875,18.1020238 L0.700875,3.32047619 Z M5.950875,1.45259524 L10.1495625,3.31504762 L10.1495625,18.088 L5.950875,16.2273571 L5.950875,1.45259524 Z M10.8504375,3.3132381 L15.049125,1.45259524 L15.049125,16.2273571 L10.8504375,18.088 L10.8504375,3.3132381 Z M20.299125,18.1020238 L15.75,16.220119 L15.75,1.47204762 L20.299125,3.66654762 L20.299125,18.1020238 Z"></path>
        </g>
    </g>
</svg>