<?xml version="1.0" encoding="utf-8"?>
<!-- Generator: Adobe Illustrator 19.2.1, SVG Export Plug-In . SVG Version: 6.00 Build 0)  -->
<svg version="1.1" id="Layer_1" xmlns="http://www.w3.org/2000/svg" xmlns:xlink="http://www.w3.org/1999/xlink" x="0px" y="0px"
	 viewBox="0 0 213 57" style="enable-background:new 0 0 213 57;" xml:space="preserve">
<style type="text/css">
	.st0{fill:none;}
	.st1{fill:#E95646;}
</style>
<title>see-all</title>
<desc>Created with Sketch.</desc>
<g id="Clip-2">
</g>
<g>
	<path class="st0" d="M46.7,44.6L46.7,44.6C46.7,44.5,46.7,44.5,46.7,44.6z"/>
	<path class="st0" d="M43.5,34.8c0.1,0,0.2,0,0.3,0C43.7,34.7,43.6,34.7,43.5,34.8z"/>
	<path class="st0" d="M41.3,12.2C41.4,12.1,41.3,12.1,41.3,12.2L41.3,12.2z"/>
	<path class="st0" d="M41.6,51.2c0.1-0.1,0.1-0.1,0.1-0.1C41.6,51.2,41.6,51.2,41.6,51.2L41.6,51.2z"/>
	<path class="st0" d="M44.6,7.9c0.1,0,0.1,0,0.2-0.1C44.8,7.8,44.7,7.9,44.6,7.9z"/>
	<path class="st0" d="M43.9,39.8C43.9,39.8,44,39.8,43.9,39.8C44,39.8,43.9,39.8,43.9,39.8z"/>
	<path class="st0" d="M45.5,9.5c0.1,0,0.1,0,0.2,0c0.1,0,0.1-0.1,0.2-0.1C45.8,9.4,45.7,9.5,45.5,9.5z"/>
	<path class="st0" d="M46,13.2c0,0,0,0,0.1-0.1h-0.3C45.9,13.1,46,13.2,46,13.2z"/>
	<path class="st0" d="M40.5,51.2L40.5,51.2c0,0.1,0.2,0.2,0.4,0.1C40.7,51.3,40.5,51.3,40.5,51.2z"/>
	<path class="st0" d="M45.5,45.6c-0.1,0.1,0,0.1,0.1,0.1C45.6,45.7,45.5,45.7,45.5,45.6z"/>
	<path class="st0" d="M40.4,52.2C40.4,52.3,40.5,52.3,40.4,52.2C40.5,52.2,40.4,52.2,40.4,52.2z"/>
	<path class="st0" d="M33.7,35.8c-0.1-0.1-0.2-0.1-0.4-0.1C33.5,35.7,33.7,35.8,33.7,35.8z"/>
	<path class="st0" d="M37.2,25.6L37.2,25.6c-0.1-0.1-0.1-0.1-0.2-0.1C37.2,25.5,37.2,25.5,37.2,25.6z"/>
	<path class="st0" d="M46.7,32.8c0.1,0,0.1,0,0.2,0c-0.1,0-0.2,0-0.3-0.1C46.6,32.8,46.6,32.8,46.7,32.8z"/>
	<path class="st0" d="M32.8,30.9l0.2-0.1C32.9,30.8,32.8,30.8,32.8,30.9z"/>
	<path class="st0" d="M32.8,8.6c0,0,0.1-0.1,0.2-0.1C32.9,8.5,32.8,8.5,32.8,8.6z"/>
	<path class="st0" d="M35,32.2c-0.1,0.1-0.1,0.2-0.2,0.3c0,0,0.1,0,0.1,0C35.2,32.4,35.1,32.3,35,32.2C35,32.3,35,32.2,35,32.2z"/>
	<path class="st0" d="M37.9,39.3c0-0.1,0.1-0.1,0.2-0.1c-0.1,0-0.2,0-0.4,0.1C37.7,39.3,37.8,39.3,37.9,39.3z"/>
	<path class="st0" d="M40,45.6c-0.1,0-0.2-0.1-0.3-0.1C39.7,45.6,39.9,45.6,40,45.6z"/>
	<path class="st0" d="M40,20.5C39.9,20.5,39.9,20.6,40,20.5L40,20.5C40.1,20.5,40,20.5,40,20.5z"/>
	<path class="st0" d="M38.3,7.2c-0.2,0-0.4,0-0.5,0.1C38,7.3,38.2,7.2,38.3,7.2z"/>
	<path class="st0" d="M40.8,14.2c-0.1,0.1-0.2,0-0.3,0.1c-0.1,0,0,0.1,0,0.1C40.5,14.3,40.7,14.3,40.8,14.2z"/>
	<path class="st0" d="M64.2,8.2C64.2,8.2,64.2,8.2,64.2,8.2C64.2,8.2,64.1,8.2,64.2,8.2z"/>
	<path class="st0" d="M58,50.9c0.1-0.1,0.1-0.1,0.2-0.1C58.1,50.8,58,50.8,58,50.9z"/>
	<path class="st0" d="M59.1,32.9c0.1,0,0.1,0,0.2,0C59.2,32.9,59.1,32.9,59.1,32.9z"/>
	<path class="st0" d="M61.6,47.6c-0.2,0-0.3,0.1-0.6,0.1C61.2,47.7,61.4,47.7,61.6,47.6z"/>
	<path class="st0" d="M58.9,26.9c-0.1,0-0.1,0.1-0.1,0.1c0.1,0,0.1-0.1,0.3-0.1H58.9z"/>
	<path class="st0" d="M61.4,29.4l0.1-0.1C61.4,29.3,61.4,29.4,61.4,29.4z"/>
	<path class="st0" d="M49.8,28.1c0,0-0.1,0.1-0.2,0.1c0.1,0,0.3,0,0.3,0C49.9,28.1,49.9,28.1,49.8,28.1z"/>
	<path class="st0" d="M68.5,50.5C68.6,50.5,68.6,50.6,68.5,50.5C68.7,50.5,68.6,50.5,68.5,50.5z"/>
	<path class="st0" d="M64.9,12.4c0,0,0,0,0.1,0C64.9,12.4,64.8,12.4,64.9,12.4z"/>
	<path class="st0" d="M70.4,16.5c-0.1,0-0.3,0-0.4,0.1C70.1,16.6,70.3,16.6,70.4,16.5z"/>
	<path class="st0" d="M68.4,12.7C68.4,12.7,68.4,12.7,68.4,12.7c0.1,0,0.1,0,0.2,0C68.5,12.7,68.5,12.7,68.4,12.7z"/>
	<path class="st0" d="M32.3,42.4c-0.1,0-0.2,0-0.3,0C32.2,42.5,32.3,42.4,32.3,42.4z"/>
	<path class="st0" d="M52,13.9C52,13.9,52,13.9,52,13.9C52,13.9,52,13.9,52,13.9C52,13.9,52,13.9,52,13.9z"/>
	<path class="st0" d="M52,13.9L52,13.9C52,13.9,52,13.9,52,13.9z"/>
	<path class="st0" d="M50.5,50.5c0.3,0,0.3,0.1,0.2,0.2C50.9,50.6,50.8,50.5,50.5,50.5z"/>
	<path class="st0" d="M54.1,28.4c-0.1,0-0.2,0.1-0.2,0.1C54,28.5,54,28.5,54.1,28.4z"/>
	<path class="st0" d="M51.2,46.6c-0.1,0,0,0.1-0.1,0.1c0.2,0,0.4-0.1,0.5-0.1c-0.1,0-0.1,0-0.2,0C51.4,46.6,51.3,46.6,51.2,46.6z"/>
	<path class="st0" d="M57.7,9.9L58,10C57.9,10,57.8,9.9,57.7,9.9z"/>
	<path class="st0" d="M56.5,9.5c-0.1-0.2-0.2-0.2-0.3-0.1C56.4,9.4,56.5,9.4,56.5,9.5z"/>
	<path class="st0" d="M56.3,27.7c0.2-0.1,0.5-0.2,0.7-0.2c-0.2,0-0.2,0-0.3,0C56.5,27.6,56.5,27.6,56.3,27.7z"/>
	<path class="st0" d="M56,50.9c0,0,0.1,0,0.2,0.1C56.1,50.9,56.1,50.9,56,50.9L56,50.9z"/>
	<path class="st0" d="M54.8,25.2c-0.1,0-0.2,0-0.3,0C54.5,25.3,54.7,25.3,54.8,25.2z"/>
	<path class="st0" d="M14.2,10.3C14.2,10.3,14.2,10.3,14.2,10.3C14.3,10.2,14.2,10.2,14.2,10.3z"/>
	<path class="st0" d="M10.4,17.9c0.1,0,0.1,0,0.2,0c-0.1,0-0.2,0-0.3-0.1C10.3,17.9,10.3,17.9,10.4,17.9z"/>
	<path class="st0" d="M-3.3,42.2c-0.2,0-0.3-0.1-0.4-0.1C-3.6,42.2-3.5,42.2-3.3,42.2z"/>
	<path class="st0" d="M1.6,50c0,0,0-0.1,0.1-0.1c0.3,0.1,0.5,0,0.7,0c0,0,0,0,0.1,0c0.3-0.1,0.8-0.3,1.2-0.4
		c-0.3-0.1-0.5-0.2-0.9-0.1c-0.1,0-0.1,0-0.2,0c-1-0.1-1.7,0.1-2.6,0.2v0.7c0.1,0,0.3,0,0.4-0.1C0.7,50.1,1.2,50.1,1.6,50z"/>
	<path class="st0" d="M29.4,31.9c0.1,0,0.2,0,0.3-0.1c-0.3,0.1-0.5,0.1-0.7,0.2C29.2,32,29.3,31.9,29.4,31.9z"/>
	<path class="st0" d="M-5.7,30.5c0.1-0.1,0.3-0.1,0.5-0.1C-5.4,30.3-5.6,30.4-5.7,30.5z"/>
	<path class="st0" d="M-3.9,42.3c0,0.1,0.1,0.1,0.1,0.1S-3.8,42.3-3.9,42.3z"/>
	<path class="st0" d="M4.9,26c0,0,0.1,0,0.2-0.1C4.9,26,4.8,26,4.6,26C4.7,26,4.8,26,4.9,26z"/>
	<path class="st0" d="M9,23c-0.1,0-0.2,0-0.2,0S9,23.1,9,23L9,23z"/>
	<path class="st0" d="M0.5,13.5c0,0,0.1,0,0.2,0c0-0.1,0-0.1-0.1-0.2C0.6,13.4,0.6,13.5,0.5,13.5z"/>
	<path class="st0" d="M185.3,17.8c-0.2,0.1-0.3,0.1-0.6,0.1C184.9,17.9,185.2,17.8,185.3,17.8z"/>
	<path class="st0" d="M1.4,34.4c-0.1,0-0.2,0.1-0.3,0.1C1.1,34.5,1.2,34.5,1.4,34.4z"/>
	<path class="st0" d="M12.7,3c-0.1,0-0.2,0.1-0.2,0.2C12.6,3.1,12.7,3.1,12.7,3z"/>
	<path class="st0" d="M-33.7,35.7C-33.7,35.6-33.8,35.6-33.7,35.7L-33.7,35.7z"/>
	<path class="st0" d="M-22.4,16.8h-0.2C-22.5,16.9-22.5,16.8-22.4,16.8z"/>
	<path class="st0" d="M-43.6,30.1c0.1-0.1,0-0.2,0.3-0.3c0,0-0.1,0-0.2,0.1C-43.7,29.9-43.6,30-43.6,30.1z"/>
	<path class="st0" d="M-21.1,23.9C-21.1,23.9-21.1,23.9-21.1,23.9c0.1,0,0.1-0.1,0.2-0.1l-0.1-0.1C-21,23.7-21,23.8-21.1,23.9z"/>
	<path class="st0" d="M-35.6,26.2c-0.3,0-0.4,0-0.5,0.1C-36,26.3-35.8,26.2-35.6,26.2z"/>
	<path class="st0" d="M-12.7,40.3h0.1c0.1-0.1,0-0.1-0.3-0.1C-12.7,40.2-12.7,40.3-12.7,40.3z"/>
	<path class="st0" d="M-8.5,1c-0.2,0-0.3,0-0.4,0c0.2,0,0.4,0,0.5,0.1C-8.4,1.1-8.4,1-8.5,1z"/>
	<path class="st0" d="M-12.1,30.2c0,0,0,0.1,0,0.1C-12,30.2-12.1,30.2-12.1,30.2z"/>
	<path class="st0" d="M-18.7,29c-0.1,0-0.3,0.1-0.5,0.1C-18.9,29.2-18.7,29.1-18.7,29z"/>
	<path class="st0" d="M-7.7,41c0.1-0.1,0.2-0.2,0.4-0.2c-0.1,0-0.1,0-0.2,0C-7.6,40.8-7.7,40.8-7.7,41z"/>
	<path class="st0" d="M-10.2,49c0.3,0,0.4,0,0.5,0C-9.8,48.9-10,48.9-10.2,49z"/>
	<path class="st0" d="M20.7,23.7l-0.2,0.1C20.5,23.8,20.6,23.8,20.7,23.7z"/>
	<path class="st0" d="M21.9,16.9c0.1,0,0.2,0,0.2-0.1c0,0-0.1,0-0.3-0.1C22,16.8,22,16.8,21.9,16.9z"/>
	<path class="st0" d="M17.8,5c0.1,0,0.2-0.1,0.4-0.1h-0.3C17.8,4.9,17.9,5,17.8,5z"/>
	<path class="st0" d="M21.7,18.5c0.1,0,0.1,0,0.1,0C21.8,18.5,21.8,18.5,21.7,18.5L21.7,18.5z"/>
	<path class="st0" d="M19.5,26.2c-0.2,0.1-0.4,0.1-0.6,0.2c0.1,0,0.2,0,0.3,0C19.3,26.4,19.5,26.3,19.5,26.2
		C19.5,26.3,19.5,26.3,19.5,26.2z"/>
	<path class="st0" d="M19.7,39c0.1-0.1,0.2-0.1,0.3-0.2C19.8,38.8,19.7,38.9,19.7,39z"/>
	<path class="st0" d="M25.2,12.3c-0.1,0-0.2,0-0.3,0c0.2,0,0.3,0,0.4,0.1C25.3,12.3,25.3,12.3,25.2,12.3z"/>
	<path class="st0" d="M28.5,8.1h-0.3C28.3,8.1,28.5,8.2,28.5,8.1z"/>
	<path class="st0" d="M28.9,46c0,0.1-0.1,0.1-0.2,0.2c0.2-0.1,0.5-0.3,0.9-0.5C29.4,45.8,29.3,45.9,28.9,46L28.9,46z"/>
	<path class="st0" d="M28.1,40.2c-0.1,0-0.2,0-0.3,0c0.2,0,0.3,0,0.4,0.1C28.2,40.3,28.2,40.2,28.1,40.2z"/>
	<path class="st0" d="M11.8,51.2c-0.1,0-0.1,0.1,0,0.2h0.1C11.9,51.3,11.7,51.3,11.8,51.2z"/>
	<path class="st0" d="M12,50.6c-0.1,0-0.2,0-0.3,0.1C11.8,50.7,11.9,50.6,12,50.6z"/>
	<path class="st0" d="M11.3,46c0.3-0.1,0.5-0.1,0.8-0.1H12C11.7,45.8,11.4,45.9,11.3,46z"/>
	<path class="st0" d="M13,52c0.1,0,0.2,0,0.3,0C13.2,51.9,13.1,51.9,13,52z"/>
	<path class="st0" d="M12.2,48.7C12.2,48.7,12.2,48.7,12.2,48.7C12.1,48.7,12.2,48.7,12.2,48.7z"/>
	<path class="st0" d="M12.4,19C12.4,19.1,12.4,19.1,12.4,19C12.4,19.1,12.4,19.1,12.4,19z"/>
	<path class="st0" d="M14,13.2c-0.1-0.1-0.2-0.1-0.2-0.1c0,0,0,0,0,0C13.9,13.2,13.9,13.2,14,13.2z"/>
	<path class="st0" d="M16.3,20.2c-0.1,0-0.3,0-0.4,0C16,20.2,16.1,20.3,16.3,20.2z"/>
	<path class="st0" d="M16.5,47c-0.1,0-0.2,0-0.3-0.1C16.2,47.1,16.4,47.1,16.5,47z"/>
	<path class="st0" d="M17.3,15.6c-0.1,0-0.2,0.1-0.3,0.1C17.1,15.7,17.2,15.7,17.3,15.6z"/>
	<path class="st0" d="M71.1,27.3c0.1-0.1,0.2-0.1,0.4-0.1c0,0-0.2,0-0.3,0C71.1,27.2,71.1,27.2,71.1,27.3z"/>
	<path class="st0" d="M52,13.9C51.9,13.9,51.9,13.9,52,13.9L52,13.9C52,13.9,52,13.9,52,13.9C52,13.9,52,13.9,52,13.9z"/>
	<path class="st0" d="M112.5,39.8C112.5,39.8,112.5,39.8,112.5,39.8C112.5,39.8,112.4,39.8,112.5,39.8L112.5,39.8z"/>
	<path class="st0" d="M160.5,16.7L160.5,16.7C160.5,16.7,160.4,16.7,160.5,16.7C160.4,16.7,160.5,16.7,160.5,16.7z"/>
	<path class="st0" d="M159.8,28.4c-0.1,0-0.1,0.1-0.2,0.1c0.2-0.1,0.2-0.1,0.3,0C159.9,28.4,159.8,28.4,159.8,28.4z"/>
	<path class="st0" d="M111.7,45c0.1,0,0.2-0.1,0.3-0.1C111.9,44.9,111.8,44.9,111.7,45z"/>
	<path class="st0" d="M120,14.3c0.2,0,0.2,0.1,0.3,0.1C120.3,14.3,120.2,14.3,120,14.3z"/>
	<path class="st0" d="M111.6,7.4l0.1,0.1C111.7,7.4,111.6,7.4,111.6,7.4z"/>
	<path class="st0" d="M124,14.7c0,0,0,0,0.1-0.1c-0.1,0.1-0.2,0.1-0.4,0.2C123.8,14.8,124,14.8,124,14.7z"/>
	<path class="st0" d="M122,24.1c0,0,0.1,0,0.1-0.1C122.1,24,122,24.1,122,24.1z"/>
	<path class="st0" d="M154.6,30.9c-0.1,0-0.2,0-0.3,0C154.5,30.9,154.7,30.9,154.6,30.9C154.7,31,154.7,30.9,154.6,30.9z"/>
	<path class="st0" d="M101.5,4.9c0.2,0,0.5-0.1,0.8-0.1C102,4.8,101.8,4.8,101.5,4.9z"/>
	<path class="st0" d="M111.3,35.9L111.3,35.9C111.3,36,111.3,36,111.3,35.9z"/>
	<path class="st0" d="M100.4,48.7C100.4,48.8,100.4,48.8,100.4,48.7C100.4,48.8,100.4,48.8,100.4,48.7
		C100.5,48.7,100.4,48.6,100.4,48.7z"/>
	<path class="st0" d="M102.5,15.8l-0.3-0.2C102.2,15.7,102.2,15.7,102.5,15.8z"/>
	<path class="st0" d="M107.7,25.8c-0.1-0.1-0.1-0.1-0.2-0.1C107.5,25.7,107.6,25.7,107.7,25.8z"/>
	<path class="st0" d="M165.7,15.4c-0.1-0.1-0.3-0.1-0.4-0.1C165.5,15.3,165.6,15.4,165.7,15.4z"/>
	<path class="st0" d="M103.4,15.8C103.4,15.8,103.4,15.7,103.4,15.8c-0.1,0-0.2,0-0.4,0C103.1,15.9,103.3,15.9,103.4,15.8z"/>
	<path class="st0" d="M146.9,21.9c-0.1,0.1-0.2,0.1-0.3,0.1C146.8,22.1,146.9,22,146.9,21.9z"/>
	<path class="st0" d="M145.5,39.7c0.1,0.1,0.1,0.1,0.2,0.1C145.7,39.7,145.6,39.7,145.5,39.7z"/>
	<path class="st0" d="M126.3,13.4v-0.1c0,0.1-0.2,0.3-0.3,0.4C126.1,13.6,126.2,13.5,126.3,13.4z"/>
	<path class="st0" d="M140.9,40.3c-0.1,0-0.2,0-0.3,0.1C140.6,40.4,140.7,40.4,140.9,40.3z"/>
	<path class="st0" d="M139.7,8.5c0,0-0.1,0-0.1,0C139.7,8.5,139.7,8.5,139.7,8.5C139.8,8.5,139.8,8.5,139.7,8.5z"/>
	<path class="st0" d="M152.8,15.8c-0.1,0.1-0.3,0.1-0.4,0.2C152.5,15.9,152.7,15.9,152.8,15.8z"/>
	<path class="st0" d="M73.6,50c0-0.1,0.1-0.1,0.3-0.2C73.7,49.8,73.6,49.9,73.6,50z"/>
	<path class="st0" d="M98.3,28.9c0.1,0,0.1,0.1,0.1,0.1C98.5,29,98.4,28.9,98.3,28.9z"/>
	<path class="st0" d="M152,18.6C152.1,18.6,152.1,18.6,152,18.6C152.1,18.6,152.1,18.6,152,18.6z"/>
	<path class="st0" d="M142.8,34.8c0,0,0,0-0.2,0.1C142.7,34.9,142.7,34.9,142.8,34.8z"/>
	<path class="st0" d="M129.1,47.9c0,0.1,0.1,0.1,0.1,0.1C129.2,47.9,129.1,47.9,129.1,47.9z"/>
	<path class="st0" d="M128.1,49.2c-0.1,0-0.2,0-0.2,0C128,49.3,128,49.2,128.1,49.2z"/>
	<path class="st0" d="M153.9,46.8C153.9,46.8,153.9,46.8,153.9,46.8c0,0-0.1,0-0.1,0H153.9z"/>
	<path class="st0" d="M135.7,46.2V46C135.6,46.1,135.7,46.1,135.7,46.2z"/>
	<path class="st0" d="M136.4,22.7c-0.1,0.1-0.1,0.1-0.2,0.1c0.2,0,0.4,0,0.5-0.1C136.6,22.7,136.5,22.8,136.4,22.7z"/>
	<path class="st0" d="M138,49c0.1,0,0.2,0,0.4,0C138.2,48.9,138.1,49,138,49z"/>
	<path class="st0" d="M134.8,7.1C134.9,7.1,134.8,7,134.8,7.1L134.8,7.1z"/>
	<path class="st0" d="M163.3,38.3c0.1-0.1,0.2-0.1,0.3-0.1c0,0-0.1,0-0.2,0L163.3,38.3z"/>
	<path class="st0" d="M80.7,26.9c-0.1,0-0.2,0.1-0.2,0.1C80.6,27,80.7,27,80.7,26.9z"/>
	<path class="st0" d="M91,50.5C91,50.6,91.1,50.5,91,50.5L91,50.5z"/>
	<path class="st0" d="M80.8,51.7c-0.1,0-0.1,0-0.2,0.1L80.8,51.7z"/>
	<path class="st0" d="M77.5,13.2C77.4,13.2,77.4,13.1,77.5,13.2C77.4,13.1,77.4,13.2,77.5,13.2z"/>
	<path class="st0" d="M170.3,35.4c0,0,0.1,0,0.1,0.1h0.1C170.5,35.4,170.4,35.4,170.3,35.4z"/>
	<path class="st0" d="M90.5,11.6c0,0.1-0.1,0.2-0.2,0.2c0.2,0,0.3-0.1,0.4-0.2C90.6,11.6,90.6,11.6,90.5,11.6z"/>
	<path class="st0" d="M84.9,51.1c0.1,0,0.1,0,0.2,0c-0.2,0-0.4,0-0.5-0.1C84.6,51,84.6,51.1,84.9,51.1z"/>
	<path class="st0" d="M84.2,34.9c0,0.1,0,0.2-0.1,0.2c0,0,0,0,0.1,0C84.3,35.1,84.4,35,84.2,34.9z"/>
	<path class="st0" d="M178,18.2c0.2,0.1,0.4,0.1,0.5,0C178.3,18.2,178.1,18.2,178,18.2z"/>
	<path class="st0" d="M76.6,49.6c0.1,0,0.1,0,0.2,0C76.7,49.6,76.7,49.6,76.6,49.6L76.6,49.6z"/>
	<path class="st0" d="M77.1,18L77.1,18C77.2,18,77.1,18,77.1,18L77.1,18z"/>
	<path class="st0" d="M74.5,14.1L74.5,14.1c0.1,0,0.2,0,0.3,0.1C74.9,14.1,74.6,14,74.5,14.1z"/>
	<path class="st0" d="M97.8,27.5c0.1-0.1,0.2-0.1,0.3-0.1c-0.1,0-0.1,0-0.2,0C97.7,27.4,97.7,27.5,97.8,27.5z"/>
	<path class="st0" d="M179.1,15.8c-0.1,0-0.2,0-0.3,0C178.9,15.8,179,15.8,179.1,15.8z"/>
	<path class="st0" d="M186.3,28.4c-0.2,0.1,0.1,0.1,0.5,0.1C186.4,28.5,186.3,28.5,186.3,28.4z"/>
	<path class="st0" d="M187.1,39.4c-0.2,0-0.3,0-0.4,0.1C186.9,39.4,187,39.4,187.1,39.4z"/>
	<path class="st0" d="M169.3,43.5c-0.1,0-0.1,0-0.2,0C169.1,43.6,169.2,43.6,169.3,43.5z"/>
	<path class="st0" d="M92.2,52.5c0.1,0,0.2,0,0.3,0c-0.2-0.1-0.3-0.1-0.4-0.1C92.1,52.4,92.1,52.5,92.2,52.5z"/>
	<path class="st0" d="M169,13.3c-0.2-0.1-0.3-0.2-0.4-0.2C168.7,13.2,168.8,13.3,169,13.3z"/>
	<path class="st0" d="M90.7,50.4c0.2,0.1,0.2,0.1,0.3,0.1C91,50.4,90.9,50.4,90.7,50.4z"/>
	<path class="st0" d="M96.3,48.9c0.2-0.1,0.4-0.1,0.6-0.1c-0.1,0-0.1,0-0.2,0C96.6,48.8,96.5,48.8,96.3,48.9z"/>
	<path class="st1" d="M12.9,52c0.1,0,0.1,0,0.1,0C13,52,13,52,12.9,52z"/>
	<path class="st1" d="M13.3,27.5c-0.2,0-0.3,0-0.5,0.1C13,27.5,13.2,27.5,13.3,27.5z"/>
	<path class="st1" d="M154.4,32.5h-0.1C154.4,32.6,154.4,32.5,154.4,32.5z"/>
	<path class="st1" d="M152.4,16c0,0-0.1,0.1-0.1,0.1C152.3,16.1,152.4,16,152.4,16z"/>
	<path class="st1" d="M56.7,7c0.1,0.1,0.2,0.2,0.5,0.2C57,7.2,56.8,7.1,56.7,7z"/>
	<path class="st1" d="M-18.7,29c0,0,0.1,0,0.1,0L-18.7,29C-18.7,29-18.7,29-18.7,29z"/>
	<path class="st1" d="M202.1,25.6c-0.1,0-0.2,0-0.4,0.1C201.9,25.7,202,25.7,202.1,25.6z"/>
	<path class="st1" d="M-1.1,50.5c-0.1,0.1-0.4,0.1-0.5,0.1c0,0,0,0-0.1,0c-0.4,0-0.6,0.1-0.6,0.3c0,0,0.4,0.3,0.6,0.3
		c0.3,0,0.6,0,0.9-0.1c0.1,0,0.1-0.1,0.2-0.1c0.2-0.1,0.4-0.2,0.6-0.1v-0.6C-0.5,50.3-0.9,50.3-1.1,50.5z"/>
	<path class="st1" d="M-2.7,47.6l0.1-0.1C-2.6,47.5-2.7,47.5-2.7,47.6z"/>
	<path class="st1" d="M-0.8,19.9C-1,20-1.1,20-1.1,20C-1,20.1-0.9,20-0.8,19.9z"/>
	<path class="st1" d="M212.8,27.3c-0.1-0.1-0.4-0.1-0.6-0.1c-0.3,0-0.6,0.1-1,0.1c-1,0.2-1.3,0.1-2-0.2c-0.2-0.1-0.4-0.2-0.7-0.1
		c-0.8,0-1.5,0-2.2,0.1c-0.4,0.1-0.9,0.1-1.4,0c-0.3,0-0.5-0.1-0.3-0.2c0.4-0.2,0.6-0.6,1.7-0.5c0.1,0,0.3,0,0.5-0.1
		c0.6-0.1,0.7-0.2,0.4-0.4c-0.5-0.4-1.5-0.4-2.5-0.1c-0.1-0.1-0.2-0.1-0.3-0.1c-0.3,0-0.5,0-0.7,0.1c-0.8,0.1-1.5,0.2-2.3,0.3
		c-0.4,0-0.7,0-0.8-0.2c-0.1-0.1,0.1-0.1,0.3-0.2c0.3-0.1,0.6-0.2,1-0.3c0.8-0.1,1.7-0.2,2.3-0.4c0.4-0.1,0.6-0.3,0.9-0.4
		c0.2-0.1-0.1-0.3-0.2-0.4c-0.1-0.1,0-0.3,0.4-0.4c0.3-0.1,0.6-0.1,0.9-0.1c0.7-0.1,1.6-0.2,2.2-0.4c0.4-0.1,0.7-0.3,0.6-0.5
		c0-0.1,0-0.3,0.1-0.4c0.1-0.1-0.1-0.2-0.3-0.2c-0.4,0-0.8,0-1.2,0c-0.9,0.1-0.9,0.1-1.3-0.2c-0.1-0.1-0.1-0.1-0.4-0.1
		c-0.7,0.1-1.5,0.1-2.2,0.2c-0.5,0-0.9,0.2-1.4,0.2s-1,0-1.5,0.1c-0.7,0-0.7,0-1.1-0.2l-0.1-0.1c-0.3-0.3-0.4-0.3-1.4-0.3H198
		c-0.4,0-1,0-1.3-0.1c-0.5-0.2-1.1-0.3-1.7-0.4c-0.1,0-0.2-0.1-0.3-0.2c-0.2-0.1-0.5-0.1-0.9-0.1c-0.1,0-0.4,0-0.5,0
		c-0.6,0-1.3,0-1.7,0.3c-0.2,0.1-0.5,0.1-0.7,0c-0.2-0.1-0.4-0.1-0.6-0.1c-0.5,0-0.8-0.1-1.1-0.2c-0.3-0.1-0.3-0.1-0.1-0.2
		c0.1-0.1,0.3-0.1,0.5-0.2c0.3-0.1,0.5-0.1,0.7-0.2c0.1-0.1,0.2-0.1,0.4-0.1c0.5,0,1-0.1,1.4-0.2c0.4-0.1,0.6-0.2,0.7-0.3
		c0.1-0.2,0.3-0.4,0.3-0.6c0.1-0.3,0.1-0.3-0.6-0.2c-0.1,0-0.2,0-0.3,0c-0.3,0.1-0.6,0.1-0.9,0.1c-0.5,0-0.8-0.1-0.7-0.3l0.2-0.1
		c0.1-0.1,0.1-0.1-0.1-0.2h-0.4c-0.7,0.2-1.4,0.3-2.2,0.3c-0.2,0-0.4,0.1-0.5,0.1c-0.3,0.2-0.7,0.3-1.2,0.4
		c-0.2,0.2-0.5,0.2-0.9,0.2c-0.2,0-0.5,0-0.7,0.1c-0.7,0.1-0.9,0-0.8-0.3c0-0.2,0.1-0.3-0.5-0.4c-0.3-0.1-0.3-0.2-0.1-0.3
		c0.3-0.2,0.7-0.3,1.3-0.3c0.5,0,0.8-0.1,1.2-0.2c0.2,0,0.1-0.1,0.2-0.2c0.1-0.1,0.1-0.2,0.4-0.3c0.7-0.2,0.9-0.4,0.7-0.7
		c-0.1-0.1-0.2-0.1-0.5-0.1c-0.4,0-0.9,0.1-1.3,0.2c-0.2,0-0.3,0.1-0.5,0.1c-0.7,0.1-1.4,0.2-2,0.3c-0.7,0.2-1.6,0.4-2.4,0.4
		c-0.4,0.1-0.6,0-0.7-0.2c-0.1-0.2,0.2-0.5,0.7-0.6c0.3-0.1,0.7-0.1,1.1-0.1c0.6-0.1,0.8-0.1,0.5-0.3c-0.4-0.2-0.3-0.4-0.2-0.7
		c0.2-0.1,0.2-0.3-0.1-0.4c-0.1-0.1-0.1-0.1,0-0.2c0.1-0.1-0.1-0.1-0.4-0.2c-0.3,0-0.5,0-0.7,0c-0.7,0.1-1,0.1-1.3-0.2l-0.3-0.2
		c-0.2-0.2-0.1-0.3,0.4-0.4c0.3,0,0.6-0.1,1-0.1c0.3-0.1,0.5-0.1,0.9-0.1c0.2,0,0.5,0,0.5-0.2c0.1-0.2,0.4-0.3,0.6-0.4
		c0.1-0.1,0.2-0.1,0.1-0.2c-0.1,0-0.3,0-0.5,0c-0.7,0-1.2,0.1-1.7,0.2c-0.4,0.1-0.8,0.1-1.2,0.1c-0.5-0.1-1.2-0.1-1.4-0.3
		s-0.4-0.2-0.8-0.2c-0.7,0-1.3,0.1-2-0.1c-0.1-0.1-0.3,0-0.5,0c-0.6,0-1.2,0.1-1.8,0c-0.2,0-0.3,0-0.5,0c-0.6,0-1.3,0-1.9,0
		c-0.6,0-1.1-0.3-0.8-0.6c0.1,0,0.1-0.1,0.1-0.2c-0.2-0.3-0.3-0.5-1-0.7c-0.4-0.1-0.7-0.2-0.6-0.4c0.2-0.3,0.1-0.3-0.6-0.4
		c-0.4-0.1-0.8-0.1-1-0.2c-0.1-0.1-0.4-0.1-0.7-0.1c-0.2,0-0.5,0-0.7,0c-0.6-0.1-1.3-0.2-1.6-0.5c-0.4-0.3-0.9-0.4-1.7-0.5h-0.1
		c-0.5-0.1-1.1-0.1-1.7,0c-0.4,0-0.9,0-1.3,0c-0.1,0-0.2,0.1-0.4,0.1h-0.3c-0.5,0.2-1.1,0.2-1.8,0.2c-0.2,0-0.5,0-0.6,0.2
		c-0.4,0-0.9,0.1-1.2,0c-0.6-0.1-1.3-0.2-1.9-0.2c-0.8-0.1-0.9-0.1-0.9-0.4c0-0.1-0.2-0.2-0.5-0.3c-0.3-0.1-0.5-0.1-0.8,0.1
		c-0.1,0.1-0.2,0.1-0.4,0.1c-0.6,0-1.3,0.1-1.9,0c-0.7-0.1-1.3-0.2-2-0.1h-0.1c-0.7-0.1-1.4-0.1-2-0.3c-0.2,0-0.3,0-0.4-0.1
		c-0.2-0.3-0.7-0.3-1.3-0.4v0.2c-0.1,0-0.2,0-0.2,0c-0.3,0-0.5,0-0.7,0c-0.1,0-0.1,0-0.1,0c-0.2-0.1-0.3-0.1-0.3-0.2
		c-0.1-0.1-0.1-0.1-0.2-0.1c-0.5-0.3-1.1-0.3-1.6-0.1c-0.2,0.1-0.6,0.1-0.9,0.2c-0.1,0-0.2,0-0.3,0c-0.1,0-0.1-0.1,0-0.1
		c0.4-0.2,0.1-0.2-0.2-0.3c-0.4-0.1-0.5-0.2-0.4-0.4c0.2-0.2,0.3-0.4,0.7-0.5c0.3-0.2,0.3-0.2-0.2-0.3c-0.3-0.1-0.7-0.2-1.1-0.3
		c-0.4-0.1-0.6-0.1-1,0c-0.2,0.1-0.4,0.1-0.5,0.2c-0.6,0.2-1.2,0.2-2,0.3c-0.4,0-0.5-0.1-0.3-0.3c0.2-0.1,0.4-0.1,0.3-0.3
		c-0.1-0.3,0-0.7,0-0.9c0-0.4-0.4-0.5-1.4-0.4c-0.8,0.1-1.2,0.1-1.5-0.2c-0.2-0.2-0.5-0.4-0.7-0.6c-0.1-0.1-0.2-0.1-0.5-0.1
		c-0.5,0-1.1,0-1.6,0.1c-0.6,0.1-0.9,0.1-1.1-0.1c-0.1-0.2-0.3-0.2-0.7-0.1c-0.6,0.1-1.5,0.1-1.8,0.4c0,0-0.1,0-0.1,0.1
		c-0.5,0-0.9,0.2-1.3,0.2c-0.4,0-0.7,0-1,0c-0.3-0.1-0.5-0.2-1-0.2c-0.1,0-0.2-0.1-0.2-0.1c0-0.2-0.2-0.3-0.8-0.4
		c0.4-0.1,0.5-0.2,0.2-0.4c-0.1,0,0-0.1,0-0.1c0-0.3-0.1-0.3-0.8-0.2c-0.1,0-0.1,0-0.2,0c-0.2,0-0.4,0.1-0.3,0.2
		c0.1,0.2-0.1,0.2-0.5,0.3c-0.4,0-0.7,0.2-0.9,0.3c-0.1,0.1-0.2,0.1-0.4,0.2c-0.6,0.1-1.1,0.2-1.7,0.3c-0.2,0-0.4,0.1-0.6,0.1
		c-0.3-0.1-0.2-0.2-0.1-0.2c0,0,0.1-0.1,0.2-0.1c0.3-0.3,0.7-0.5,0.6-0.9c-0.1-0.1,0.2-0.3-0.2-0.3c-0.5,0-0.5,0.2-0.6,0.3
		c-0.3,0.4-0.9,0.8-1.7,1.1c-0.2,0.1-0.3,0.1-0.3,0.2c0.1,0.3-0.5,0.5-0.8,0.7c-0.1,0.1-0.5,0.1-0.8,0.2c-0.1,0-0.2,0-0.3,0
		c-0.2-0.1-0.6-0.1-0.9-0.2c-0.4-0.1-0.4-0.3-0.4-0.5c-0.1-0.1-0.1-0.2-0.3-0.2c-0.3,0-0.5,0-0.7,0.1c-0.1,0-0.1,0.1-0.1,0.2
		c0,0.1-0.1,0.1-0.3,0.1c-0.4,0-0.9,0-1.2-0.2s-0.7-0.3-0.9-0.5c-0.2-0.1-0.3-0.4-0.7-0.4c-0.6-0.1-1.4-0.2-2-0.4
		c-0.1,0-0.3,0-0.4,0c-1.1,0-2.1,0-3.2-0.1c-0.6-0.1-0.6-0.1-0.4-0.3c0.2-0.2,0-0.4-0.7-0.4c-0.4,0-0.6,0-0.9-0.1
		c-0.2-0.1-0.3-0.1-0.5,0C96.7,2.9,95.8,3,94.8,3c-0.7,0-0.9-0.1-0.6-0.3c0.3-0.4,0.1-0.6-0.9-0.6c-0.2,0-0.4,0-0.5,0
		c-0.4,0-0.8,0-1.1-0.1S91,1.8,90.4,1.8c-0.1,0-0.3,0-0.4,0c-0.4-0.1-0.9-0.1-1.3-0.2c-0.2,0-0.3,0-0.4,0s-0.1,0.1-0.1,0.1
		c0.1,0.3-0.7,0.6-1,0.9c-0.1,0.1-0.3,0.1-0.6,0.1c-1.4,0.1-2.4,0.4-2.7,1.1c-0.1,0.1-0.1,0.1-0.2,0.1c-0.5,0.2-0.5,0.4-0.5,0.7
		C83,4.8,83,5,83.1,5.3c0.1,0.2-0.4,0.4-0.9,0.4c-0.7-0.1-1.2,0.1-1.5,0.4c-0.1,0.2-0.5,0.3-1.1,0.4c-0.2,0-0.6,0.1-0.8,0.1
		c-0.4,0.2-0.6,0.2-0.8-0.1s-0.6-0.3-1.2-0.2c-0.4,0.1-0.6,0.2-1,0.3c-0.4,0.1-0.7,0.1-1,0c-0.1-0.1-0.3-0.2-0.6-0.2
		c-0.1-0.1-0.2,0-0.2,0.1c-0.1,0.3-0.7,0.4-1.4,0.6c0-0.3-0.8-0.3-1.2-0.4c-0.8-0.1-1.2,0.1-1.6,0.3c-0.3,0.2-0.8,0.4-1.3,0.5
		c-0.3,0.1-0.7,0.1-1.1,0c-0.3-0.1-0.1-0.2,0-0.3c0.1-0.1,0.2-0.2,0-0.3c-0.2-0.1-0.5-0.1-0.7,0c-0.5,0.1-1,0.2-1.4,0.3
		c-0.3,0.1-0.5,0.1-0.9,0.1c-0.7-0.1-1.3-0.2-2-0.3c-1.2,0-2.4-0.1-3.6-0.1c-0.2,0-0.4,0-0.5,0C58,7,57.7,7,57.2,7
		c-0.2,0-0.3,0-0.5,0c0.1,0.1,0.3,0.2,0.5,0.2c-0.3,0-0.4-0.1-0.5-0.2c0,0-0.1,0-0.1,0c-0.3,0-0.7-0.1-0.5-0.2c0,0,0-0.1-0.1-0.1
		c-0.6-0.1-0.9-0.3-1.6-0.3c-0.2,0-0.4,0-0.5-0.1c-0.3-0.2-0.7-0.2-1.1-0.1c-0.4,0.1-0.7,0.1-1.1,0c-0.2-0.1-0.4-0.1-0.5,0
		c-0.5,0.1-0.9,0.1-1.2-0.1c-0.3-0.1-0.6-0.1-0.9,0c-0.4,0.1-0.6,0.2-0.7,0.3c-0.2,0.1-0.2,0.3-0.4,0.4C47.5,7,47.5,7,46.8,7
		c0-0.1,0.1-0.1,0.1-0.1c0.5-0.2,0.5-0.3-0.1-0.3c-0.4,0-0.7-0.1-1-0.2c-0.2-0.1-0.4-0.1-0.6,0c-0.2,0.1-0.4,0.1-0.5,0.3
		c-0.1,0.1-0.3,0.1-0.4,0.1c-0.4-0.1-0.7-0.1-1,0c-0.4,0.1-0.9,0.1-1.2,0.2c-0.4,0.1-0.4,0.1-0.7,0c-0.4-0.2-0.9-0.3-1.6-0.2
		c-0.1,0-0.2,0-0.3,0c-0.9-0.1-1.6,0.1-2.3,0.3C37,7,36.8,7.1,36.4,7c-0.2-0.1-0.7,0-0.8-0.1c-0.2-0.2-0.5-0.1-0.9-0.1
		c-0.2,0-0.3,0.1-0.7,0.1c-0.1-0.2-0.1-0.3-0.6-0.4c-0.5,0-1-0.1-1.5-0.2c-0.3,0-0.5,0-0.8,0c-0.7,0-1.3-0.1-2-0.2
		c-0.5-0.1-0.8-0.5-0.4-0.6c0.5-0.1,0.6-0.3,0.3-0.4C28.9,5,28.9,5,28.9,4.9c-0.2-0.3-0.2-0.3-1.1-0.3c-0.2,0-0.3,0-0.4,0
		c-0.3,0-0.5,0.1-0.4,0.2c0.2,0.2-0.4,0.4-0.3,0.5c0.1,0-0.1,0.1-0.1,0.1c-0.3,0.1-0.4,0.1-0.3,0.3c0.1,0-0.1,0.1-0.2,0.1
		c-0.5,0.1-1,0.2-1.6,0.2c-0.3,0-0.3,0-0.5-0.1c-0.3-0.2-0.4-0.5-1.1-0.5c0.1-0.1,0.4-0.1,0.5-0.2C23.6,5.1,23.6,5,23.2,5
		c-0.5-0.1-0.8,0.1-0.7,0.3s-0.2,0.3-0.7,0.2c-0.2,0-0.4,0-0.5-0.1c-0.1-0.1-0.2-0.1-0.4-0.1c-0.4-0.1-0.5-0.1-0.3-0.2
		c0.4,0,0.6-0.1,1-0.1c0.3,0,0.4,0,0.5-0.2c0.2-0.1,0-0.2-0.3-0.3s-0.5-0.2-0.9-0.2c-0.2,0-0.4,0.1-0.6,0.1c-0.4,0.1-1,0.1-1.4,0
		c-0.2,0-0.4-0.1-0.6,0c-0.3,0-0.5-0.1-0.7-0.1C17.4,4.1,17,4,16.5,4.1C16.2,4.1,16,4,15.8,4c-0.2-0.1-0.5-0.2-0.9-0.1
		c-0.2,0-0.4,0-0.6,0c-0.9,0-1.5-0.3-1.2-0.6C13.3,3.2,13.3,3,13,2.9C13,3,12.9,3,12.9,3c-0.1,0-0.1,0-0.2,0
		c-0.1,0.1-0.1,0.1-0.2,0.2h-0.1h0.1c0.1-0.1,0.1-0.1,0.2-0.2c0.1,0,0.1-0.1,0.3-0.1c0.2-0.1,0.3-0.1,0.6-0.1c0.2,0,0.2,0.1,0.4,0.1
		s0.3-0.1,0.2-0.2c-0.4-0.4-0.5-0.4-1.1-0.3c-0.3-0.1-0.5-0.2-0.9-0.3h-0.5c-0.2,0-0.4-0.1-0.6-0.1c-0.3-0.2-0.7-0.2-1.3,0
		c0.2,0,0.5,0,0.7,0.1c0.1,0,0.1,0.1,0,0.1h-0.2c-0.2,0-0.4,0-0.5,0c0,0-0.1,0-0.1,0c0,0,0.1,0,0.1,0C9,1.9,8.3,1.8,7.3,2
		C7,2.1,6.7,2.1,6.4,2.1C6,2,5.7,2,5.4,2.2C5.3,2.3,5,2.3,4.8,2.2C4,1.9,3,1.9,2.1,1.9C1,1.8,0.7,1.8,0.7,1.4C0.6,1.1,0.4,0.9,0,0.7
		v48.9c0.9-0.1,1.6-0.3,2.6-0.2c0.1,0,0.1,0,0.2,0c0.4-0.1,0.6,0,0.9,0.1c-0.4,0.1-0.9,0.3-1.2,0.4c-0.1,0-0.1,0-0.1,0
		c-0.2,0-0.4,0.1-0.7,0c-0.1,0-0.1,0.1-0.1,0.1c-0.4,0.1-0.9,0.1-1.2,0.2c-0.1,0.1-0.3,0.1-0.4,0.1v0.6c0.7,0,1.4,0,2,0
		c0.2,0,0.4,0,0.5,0.1s0.3,0.1,0.5,0.1c0.4,0,0.5,0.1,0.7,0.2c0.2-0.2,0.5-0.4,1-0.4s0.6,0,0.9,0.2C5.9,51,6,51.1,6.2,51
		c0.2,0,0.1-0.1,0.1-0.1c-0.3-0.1-0.1-0.3,0.2-0.3c0.4-0.1,0.9-0.2,1.4-0.3c0.6-0.1,1.3-0.2,1.9-0.1c0.4,0,0.9,0,1.2-0.1
		c0.6-0.2,1.3-0.1,2-0.1c0.2,0,0.3,0,0.3,0.1c0.1,0-0.1,0.1-0.2,0.1c-0.1,0-0.2,0-0.2,0c-0.6,0-1.1,0.1-1.6,0.2
		c-0.5,0-1.1,0.1-1.1,0.3c0,0.1-0.1,0.1-0.2,0.1c-0.2,0-0.5,0.1-0.8,0c-0.2,0-0.4-0.1-0.5,0C8.7,51,9,51,9.1,51
		c0.6,0,0.8,0.2,0.4,0.4c-0.1,0.1-0.1,0.1-0.2,0.1c-0.5,0.1-0.9,0.2-1.5,0.3c-0.4,0-0.6,0.1-1.1,0c-0.4,0-0.7,0-1,0.2
		c-0.1,0-0.3,0.1-0.4,0.2c-0.1,0-0.3,0-0.4,0c-0.1,0-0.1-0.1-0.4-0.1C4.4,52,4.2,52,4,52c-0.2,0.1-0.4,0.1-0.3,0.2
		c0.1,0.1,0.2,0.1,0.5,0.1c0.8,0,0.8,0.1,0.9,0.3c0,0.1,0,0.1,0.1,0.1c0.1,0,0.2,0,0.3,0c0.2-0.1,0.3-0.1,0.2-0.2
		c-0.2-0.2,0.2-0.2,0.5-0.3c0.3-0.1,0.5,0,0.6,0.1c0.2,0.1,0.4,0.1,0.7,0.1c0.2-0.1,0.4-0.1,0.7,0c0.3,0.1-0.1,0.2,0.2,0.2
		c0.5-0.2,1.3-0.1,1.9-0.2c0.2,0,0.4,0,0.5,0.1c0.2,0.1-0.1,0.1-0.2,0.2c-0.4,0-0.6,0.1-0.5,0.3c0.1,0.1,0,0.1-0.1,0.2
		c-0.6,0.1-0.9,0.3-1.5,0.3c-0.2,0-0.4,0.1-0.4,0.1C8,53.7,7.9,53.9,7.9,54c3,0.3,6,0.7,9,1c0.4,0.1,0.7,0.1,1.1,0.1
		c0.4,0.1,0.9,0.1,1.3,0.2c0.1,0,0.2,0,0.2,0c1.5,0.2,2.9,0.4,4.3,0.5c0.3-0.4,0.8-0.7,2-0.7c0.4,0,0.5-0.1,0.5-0.3s0.4-0.3,0.9-0.4
		c0.4-0.1,0.9-0.1,1.4-0.1c0.7,0,1.4-0.1,2.1,0.1c0.4,0.1,1,0.1,1.4,0c0.5-0.1,1.1-0.1,1.6,0c0.4,0.1,0.8,0,1.1-0.1
		c0.2,0,0.3-0.1,0.6-0.2c0.1,0,0.2,0,0.3,0C35.8,54,36,54,36.1,54c0.6,0,1.2,0,1.8-0.1c0.3-0.1,0.6-0.1,0.9-0.1
		c0.2,0,0.4,0.1,0.4,0.2c0.1,0.1-0.1,0.1-0.3,0.1c-0.6,0.1-0.7,0.2-0.3,0.5c-0.7-0.2-1,0-1.5,0.1c-0.7,0.2-1.2,0.4-2.2,0.4
		c-0.4,0-0.8,0.1-1.1,0.2c-0.9,0.3-1.9,0.4-3.2,0.4c-0.2,0-0.5,0-0.7,0.1c-0.3,0.2-0.8,0.4-1.1,0.5c0.9,0.1,1.8,0.2,2.7,0.3
		c0.5-0.1,1.2-0.1,1.5-0.3h0.1c0.7,0.2,1,0,1.3-0.1c0.9-0.3,1.9-0.5,2.9-0.6c1.1-0.1,2.3-0.2,3.4-0.3c1.8-0.1,3.6-0.3,5.3-0.5
		c0.6-0.1,1.1-0.3,1.8-0.2c1.2,0.1,2.4-0.1,3.5-0.1c0.4,0,0.8-0.1,1.1-0.1c0.2-0.1,0.4-0.1,0.3-0.2c-0.1-0.1-0.3-0.1-0.5-0.1
		s-0.4,0-0.5,0C51.8,54,52,54,52.2,54c0.6,0,0.7,0,0.6,0.2c-0.2,0.3-0.1,0.5,1,0.6c0.1,0,0.2,0,0.2,0c0-0.2,0.5-0.2,0.8-0.2
		c0.1,0,0.2,0,0.3,0c0.2,0,0.3-0.1,0.3-0.1h0.1c0.4,0,0.6-0.1,1-0.1c1.5-0.3,3-0.6,4.7-0.7c0.2,0,0.3,0,0.3-0.1
		c0.2,0.1,0.5,0,0.8,0.1c-0.2,0.1-0.8,0.2-1.1,0.4c-0.4,0-0.7,0.2-1,0.3c-0.4,0.2-1.2,0.3-1.7,0.6c-0.5,0-1.1,0.1-1.4,0.3
		c-1,0.1-1.9,0.2-2.9,0.2c-0.5,0-1.1,0-1.6,0.1c-0.6,0.2-1.2,0.3-1.9,0.4l-0.5,0.1c-0.2,0.1-0.4,0.1-0.1,0.2c0.1,0.1,0,0.1-0.1,0.1
		c-0.6,0.1-1.2,0.3-1.9,0.3c-0.6,0.1-0.9,0.2-1.2,0.4C47.4,57,48,57,48.6,57c0.8-0.1,1.5-0.1,2.1-0.3c0.3-0.1,0.7-0.2,1.1-0.1
		c0.3,0,0.5,0,0.7-0.1c0.4-0.1,0.8-0.1,1.2-0.1c0.3,0,0.7-0.1,0.9-0.1c0-0.3,0.2-0.3,0.4-0.3c0.6,0,1.1-0.1,1.5-0.3
		c0.1,0,0.2,0,0.3-0.1c1-0.2,1.9-0.3,2.8-0.5c0.7-0.3,1.7-0.4,2.6-0.6l0.2-0.1c0.4-0.1,0.8-0.2,1.2-0.2c0.2,0,0.6-0.1,0.8-0.2
		c1.1-0.4,2.6-0.5,3.9-0.8c1.7-0.4,3.4-0.7,5.1-1.1c0.1,0,0.2-0.1,0.2-0.1c0.2,0,0.3,0,0.5,0c0.1,0,0.3,0,0.4-0.1c0.1,0,0.2,0,0.3,0
		c0.1,0,0.3,0,0.4,0c0.5,0.1,1,0,1.5-0.1c0.2,0,0.5-0.1,0.7,0c0.1,0.1,0.1,0.2,0.1,0.3c-0.1,0-0.2,0.1-0.1,0.1
		c0.2,0,0.5-0.1,0.7-0.1c0.6,0,1.1-0.2,1.7-0.1c0.5,0.1,0.9,0.1,1.4,0c0.1,0,0.3-0.1,0.3,0c0.1,0.1-0.1,0.1-0.2,0.1
		c-0.9,0.3-2,0.4-2.9,0.6c-0.1,0-0.1,0-0.2,0c-0.6,0.1-1,0.2-1.2,0.4c-0.1,0.2-0.4,0.2-0.7,0.2c-0.2,0-0.2,0-0.3,0
		c-0.2,0-0.3,0.1-0.5,0.1c-0.5,0-0.9,0.1-1.3,0.2c-0.2,0-0.4,0.1-0.5,0.1c-0.2,0-0.3,0.1-0.5,0c-0.1,0.1-0.2,0.1-0.4,0.1
		c-0.3,0-0.5,0.1-0.6,0.2c-0.2,0.1-0.4,0.1-0.7,0.1c-0.1,0-0.1,0-0.2,0c-0.2,0.1-0.3,0-0.5,0c-0.1,0-0.2,0-0.4,0.1
		c-0.2,0-0.3,0-0.5,0c-1.2,0.2-2.5,0.3-3.8,0.4c-0.3,0-0.6,0-0.8,0.1c-0.5,0.1-1.1,0.2-1.8,0.1c-0.4,0-0.9,0-1.1,0.2
		c-0.7,0.4-1.4,0.7-2.5,0.9h-0.1c-0.1,0-0.2,0-0.2,0c-0.9,0.1-1.7,0.2-2.4,0.5h-0.1c-0.2,0.6,0,0.6,0.5,0.6c0.5-0.1,1-0.2,1.5-0.2
		c0.2-0.2,0.7-0.1,1-0.2c0.4-0.2,1.2-0.2,1.7-0.3c0.8-0.1,1.5-0.2,2.1-0.4c0.7-0.2,1.4-0.4,2.4-0.2c0.1,0,0.2,0,0.3,0
		c0.8-0.1,0.8-0.1,0.7,0.3c0,0,0.1,0,0.1,0.1c0.4,0,0.8,0,1.2-0.1c0.8-0.1,1.6-0.2,2.4-0.2c0.5-0.1,1-0.2,1.5-0.1
		c0.3,0.1,0.4,0.1,0.7,0c0.4-0.1,0.8-0.2,1.2-0.1c0.1,0,0.2,0,0.3,0c0.7-0.1,1.3-0.3,1.9-0.4c0.4-0.1,0.8-0.1,1.2-0.2
		c0.5-0.1,1-0.3,1.7-0.3c0.3-0.1,0.6-0.2,1-0.2c0.4-0.1,0.7-0.1,1-0.1c-0.3,0.1-0.6,0.1-0.9,0.1h-0.1c0.5,0,0.9,0.1,1.5,0
		c0.7-0.1,1.5-0.2,2.2-0.4c0.2,0,0.4,0,0.6-0.1c0.2,0,0.3,0,0.4,0.1c0.1,0,0.1,0.1-0.1,0.2c-0.1,0-0.2,0-0.3,0.1
		c-0.1,0-0.2,0.1-0.2,0.1c0.1,0.1,0.2,0,0.4,0c0.5-0.1,1-0.1,1.5-0.2c0.4-0.1,1.1-0.1,1.2-0.3c0.1,0,0.3-0.1,0.5-0.1
		c0.2,0,0.3,0,0.4-0.1c0.6-0.1,1.2-0.2,1.8-0.3c0.4-0.1,0.8-0.2,1.1-0.2s0.6,0,0.9,0.1c0.1,0,0.2,0.1,0.1,0.1
		c-0.4,0.1-0.5,0.3-0.8,0.5c-0.5,0.3-1.3,0.4-1.6,0.7c-0.3-0.1-0.4,0-0.6,0.1c-0.4,0.1-0.9,0.3-1.4,0.3c-0.8,0.2-1.5,0.4-2.2,0.6
		c-0.3,0.1-0.5,0.2-0.2,0.3c0.2,0.2,0.6,0.1,1,0.1c0.2-0.1,0.5-0.1,0.6-0.1c0.5-0.2,1.2-0.3,1.8-0.4c0.2-0.1,0.4-0.1,0.7,0
		c-1,0.2-1.8,0.5-2.8,0.6c-0.9,0-1.3,0.2-1.8,0.5c-0.2,0-0.2,0.1-0.2,0.2c0.1,0.1,0.3,0.1,0.5,0.1c0.3,0,0.5,0,0.7,0
		c0.4,0,0.7-0.1,0.7,0.2c-0.1,0.1,0,0.1,0.2,0.2c0.2,0,0.3-0.1,0.4-0.1c0.7-0.1,1.5-0.2,2.1-0.5c0.3,0,0.6-0.1,0.8-0.2
		c0.3-0.2,0.7-0.3,1.2-0.3c0.1,0,0.1,0,0.1,0c0.4-0.1,0.6-0.2,0.9-0.3c0.1-0.3,0.7-0.4,1-0.6c0,0,0.1,0,0.2,0c0.7,0,1.2-0.2,1.8-0.2
		c0.3,0,0.5-0.1,0.5-0.2c0.1-0.4,0.5-0.8,1.4-1.1H97c0.7,0,1.5-0.1,2.1-0.3c0.3-0.1,0.8-0.3,1.3-0.2c0.1,0,0.2,0,0.3,0
		c0.2-0.1,0.3-0.1,0.4-0.2c0.1,0,0.2-0.1,0.4,0c0.2,0.2,0.5,0.1,0.9,0c0.3,0,0.5,0,0.5,0.1c-0.1,0.1-0.2,0.2-0.3,0.3
		c-0.2,0.1-0.1,0.3-0.1,0.4c0,0.1,0.2,0.1,0.3,0.2c0.2,0,0.3-0.1,0.4-0.1c0.2-0.1,0.4-0.2,0.7-0.1c0.4,0,0.7-0.1,1-0.1
		c0.5,0,0.8-0.2,1.1-0.2c0.9-0.1,1.8-0.2,2.6-0.3c0.2-0.1,0.3,0,0.5-0.1c0.2,0,0.3,0,0.4,0.1c0.7-0.1,1.2-0.2,1.8-0.3
		c1.1-0.2,2.1-0.4,3.1-0.6c0.3-0.1,0.3-0.2,0.3-0.3c-0.2-0.3-0.1-0.3,0.6-0.4c0.4-0.1,0.9-0.1,1.4-0.2c0.6-0.1,1-0.2,1.5-0.4
		c0.1-0.1,0.2-0.1,0.4-0.1c1-0.2,2.1-0.2,3.2-0.3c0.4,0,0.8,0,1.1,0.2c0.1,0,0.2,0.1,0.4,0.1c0.3,0,0.5-0.1,0.7-0.2
		c0.2-0.1,0.4-0.1,0.6-0.2c0.1,0,0.1-0.1,0.1-0.1c0.7-0.1,1.2-0.4,2-0.5c0.4,0.1,0.7-0.1,1-0.1c0.2-0.1,0.3-0.1,0.4-0.1
		c0.2,0.1,0.2,0.2,0.1,0.2c-0.1,0.1-0.2,0.2,0,0.2c0.2,0.1,0.4,0,0.6-0.1c0.1,0,0.2,0,0.3-0.1c0.1,0,0.3,0,0.3,0
		c0.2,0.1,0.6,0.1,0.9,0.1c0.3,0.1,0.5,0.1,0.7,0.1c0.4-0.1,0.8-0.2,1.2-0.3c0.2,0,0.3-0.1,0.4,0c0.2,0,0.1,0.1,0,0.2
		c-0.1,0.1,0.1,0.2,0.5,0.2c0.1,0,0.2,0,0.3-0.1c0.3-0.2,0.9-0.2,1.3-0.3c0.2,0,0.3,0,0.5,0c0.6,0.1,1.3,0.1,1.9,0
		c0.3-0.1,0.4,0,0.4,0.1c-0.1,0.1,0.1,0.3,0.4,0.3c0.4,0,0.8,0,1.2-0.1c0.3-0.1,0.3-0.2,0.3-0.3c0,0,0.1-0.2,0.2-0.2
		c0.1-0.1,0.2-0.1,0.4-0.1c0.7,0.1,1.3-0.1,1.9-0.2c0.2-0.1,0.5-0.2,0.7-0.2c0.5-0.2,1.1-0.3,1.4-0.5s0.7-0.3,1.1-0.4
		c0.1-0.1,0.2-0.1,0.3-0.2c0.1,0,0.1,0,0.2,0c0.4,0,0.7-0.1,1.1-0.1c0.4,0,0.9-0.1,1-0.3c0.1,0,0.2,0,0.2,0c0.3,0,0.5-0.1,0.9-0.2
		c0.6-0.1,1.4,0,1.6,0.2c0.2,0.3,0.7,0.4,1.2,0.5c0.6,0.1,1.1-0.1,1-0.3c-0.1-0.1,0-0.3,0.1-0.4c0.2,0,0.4-0.1,0.5-0.2
		c0.4-0.1,0.7-0.2,1-0.3c0.1-0.1,0.1-0.1,0.2-0.1c0.3,0,0.5-0.1,0.7-0.2c-0.1,0-0.2,0-0.3,0c0.1,0,0.2,0,0.3,0c0,0,0.2-0.1,0.3-0.1
		c0.4-0.1,0.8-0.2,0.9-0.3c0.1-0.1,0.2-0.1,0.4-0.1c0.6,0,0.9-0.2,1.4-0.3c0.4-0.1,0.7-0.2,1-0.3c0.4-0.2,1-0.4,1.7-0.4
		c0.1,0,0.1,0,0.2,0c0.1-0.1,0.4-0.2,0.7-0.2s0.5-0.1,0.6-0.2c0.2,0,0.3,0,0.4-0.1c0.2-0.2,0.5-0.3,0.9-0.4c0.3-0.1,0.8-0.1,1.1,0
		c0.7,0.2,1.4,0.1,2.1,0c0.3,0,0.5,0,0.8,0c0.6,0.1,1.1,0.1,1.6-0.1c0.2,0,0.4-0.1,0.6-0.1c0.2-0.1,0.4-0.1,0.6-0.2
		c0.4-0.1,0.8-0.1,1.3-0.1c0.4,0,0.7,0.1,0.5,0.3c0,0.1-0.1,0.1-0.2,0.2c-0.3,0.2-0.7,0.3-0.9,0.6c-0.2,0.2-0.4,0.3-0.9,0.4
		c-0.7,0.1-1.3,0.3-1.9,0.4c-0.4,0.2-0.8,0.3-1,0.6c-0.1,0,0,0.1,0.2,0.2c0.2,0.1,0.3,0,0.4-0.1c0.1,0,0.3-0.1,0.4-0.1
		c0.5-0.1,1-0.3,1.6-0.4c0.1,0,0.2,0,0.2,0c0.1-0.1,0.2-0.1,0.4-0.2c0.5-0.1,0.8-0.2,1.1-0.3c0.1-0.2,0.4-0.4,1-0.5
		c0.4,0,0.8-0.1,1.1-0.2c0.2,0,0.3-0.1,0.4-0.1c0.2-0.2,0.8-0.3,1.2-0.5c0.5-0.2,1.1-0.3,1.6-0.5c0.8-0.2,1.6-0.5,2.1-0.8
		c0.1-0.1,0.2-0.1,0.4-0.1c0.6-0.1,1-0.3,1.5-0.4c0.3-0.1,0.6-0.3,0.7-0.4c0.1-0.1,0.3-0.2,0.4-0.2c0.4-0.1,0.9-0.2,1.3-0.4
		c0.1,0,0.2,0,0.2,0c0.5-0.1,0.9-0.1,0.8-0.4c-0.1-0.1,0.1-0.1,0.3-0.2c0.6-0.2,1.2-0.4,1.5-0.7c0.3-0.2,0.6-0.3,1-0.4
		c0.1,0,0.2,0.1,0.3,0.1c0.3,0.1,0.4,0.2,0.9,0.2c0.5-0.1,0.6-0.3,0.8-0.4c0.1-0.2,0.3-0.4,0.7-0.5c0.1,0,0.3,0,0.3-0.1
		c0.2-0.2,0.6-0.2,0.9-0.3c0.2,0,0.3-0.1,0.5,0c0.6,0.1,0.9,0,1.3-0.2c0.2-0.1,0.3-0.2,0.6-0.3c0.3-0.1,0.4-0.1,0.1-0.2
		c-0.3-0.2-0.3-0.3,0.1-0.3c0.6-0.1,1.2-0.2,1.9-0.3c1-0.1,2-0.2,2.6-0.5c0.2-0.1,0.5-0.2,1-0.2c0.3-0.1,0.6-0.2,1-0.2
		c0.3,0,0.5-0.1,0.6-0.2c0.2-0.1,0.1-0.2-0.3-0.2c-0.7-0.1-1.3,0-1.8,0.2c-0.3,0.1-0.6,0.1-1,0.2c-1,0.1-1.9,0.3-2.7,0.4
		c-0.5,0.1-1,0-1.5,0c-0.1,0-0.2,0-0.2-0.1c-0.1-0.1,0.1-0.4,0.4-0.4c1-0.2,1.8-0.5,2.8-0.7c0.3-0.1,0.5-0.2,0.9-0.2
		c0.6,0,1-0.2,1.2-0.3c0.4-0.3,0.9-0.5,1.5-0.7h-0.1h0.1c0.4-0.1,0.7-0.2,1.2-0.3c0.6,0,0.7-0.1,0.5-0.3c0,0-0.1-0.1-0.2-0.1
		c-0.2-0.2-0.2-0.2,0.3-0.3c0.2-0.1,0.4-0.1,0.6-0.2c0.3-0.1,0.2-0.3,0.4-0.3c0.4-0.1,0.5-0.3,0.6-0.4h-0.1h0.1c0.1,0,0.3,0,0.4-0.1
		c0.6-0.2,1.2-0.5,1.8-0.6c0.4-0.1,0.5-0.2,0.2-0.3c-0.1-0.1-0.2-0.1-0.4-0.1c-0.3-0.1-0.8-0.1-1.2-0.1c-0.4,0-0.9-0.1-1.1-0.2
		c-0.2-0.1-0.3-0.2-0.7-0.2c-0.3,0-0.4-0.1-0.2-0.2c0.1-0.1,0.1-0.1,0.2-0.1c0.8-0.2,1.3-0.5,1.9-0.8c0.2,0,0.3-0.1,0.5-0.1
		c0,0,0.1,0,0.2,0c0.1,0,0.1,0,0.2,0c0.4,0,0.8,0,1.2-0.1c0.1-0.1,0.3-0.1,0.4-0.2c0.2-0.2,0.5-0.3,0.6-0.5c0.1-0.1,0.2-0.2,0.4-0.2
		c1.8-0.3,3.3-0.8,4.8-1.3C212.8,27.4,213,27.4,212.8,27.3z M204.1,23.6c-0.1,0.1,0,0.1-0.1,0.2C204.1,23.7,204,23.7,204.1,23.6z
		 M185.3,17.8C185.3,17.7,185.3,17.7,185.3,17.8l0.1-0.1C185.4,17.7,185.3,17.7,185.3,17.8c-0.1,0.1-0.3,0.1-0.6,0.1
		C184.9,17.9,185.1,17.8,185.3,17.8z M0.5,13.5c0.1,0,0.1-0.1,0.1-0.2c0.1,0.1,0.1,0.1,0.1,0.2C0.6,13.5,0.5,13.5,0.5,13.5z M1.2,35
		C1.2,35,1.2,34.9,1.2,35C1.2,34.9,1.2,35,1.2,35z M1.1,34.5C1.1,34.5,1.1,34.5,1.1,34.5C1.1,34.5,1.1,34.5,1.1,34.5
		c0.1,0,0.2-0.1,0.3-0.1C1.2,34.5,1.1,34.5,1.1,34.5z M2,35c0.2,0,0.3-0.1,0.4-0.1C2.3,34.9,2.2,35,2,35z M3.5,37.6
		c0.1,0,0.2,0,0.3,0C3.7,37.6,3.6,37.6,3.5,37.6z M4.9,26c-0.1,0-0.2,0-0.3,0c0.2,0,0.3,0,0.5-0.1C5,26,4.9,26,4.9,26z M6.8,30.2
		C6.7,30.2,6.8,30.2,6.8,30.2C6.8,30.2,6.7,30.2,6.8,30.2z M7.4,12.4c0-0.1,0.1-0.1,0.1-0.1L7.4,12.4z M9,23L9,23c0,0.1-0.2,0-0.2,0
		S8.9,23,9,23z M9.2,47.1c-0.1,0-0.1,0-0.2,0C9.1,47.1,9.1,47.1,9.2,47.1C9.2,47.1,9.2,47.1,9.2,47.1C9.2,47.1,9.2,47.1,9.2,47.1z
		 M10.4,17.9c-0.1,0-0.1,0-0.1-0.1c0.1,0.1,0.2,0.1,0.3,0.1C10.5,17.9,10.5,17.9,10.4,17.9z M11.3,46c0.1-0.1,0.4-0.2,0.7-0.1h0.1
		C11.8,45.9,11.6,45.9,11.3,46z M12.2,48.7C12.2,48.7,12.1,48.7,12.2,48.7c0-0.1,0-0.1,0.1-0.1c0,0-0.1,0-0.1,0s0,0,0.1,0
		C12.3,48.6,12.2,48.6,12.2,48.7C12.2,48.7,12.2,48.7,12.2,48.7z M12.3,19C12.3,19,12.3,19,12.3,19c0.1,0.1,0.1,0.1,0.1,0.1
		C12.4,19.1,12.4,19.1,12.3,19C12.3,19,12.3,19,12.3,19z M12.8,27.6c0.2-0.1,0.3-0.1,0.5-0.1C13.2,27.5,13,27.5,12.8,27.6z
		 M11.8,51.4c-0.1-0.1-0.1-0.2,0-0.2c-0.1,0.1,0.1,0.1,0.1,0.2H11.8z M11.7,50.7c0.1-0.1,0.2-0.1,0.3-0.1
		C11.9,50.6,11.8,50.7,11.7,50.7z M12.9,52c0.1,0,0.1,0,0.1,0c0.1,0,0.2,0,0.3,0c-0.1,0-0.1-0.1-0.3,0C13,52,13,52,12.9,52z
		 M14.6,17C14.7,17,14.6,17,14.6,17C14.6,17,14.7,17,14.6,17z M13.9,13C13.9,13.1,13.9,13.1,13.9,13c-0.1,0.1,0,0.1,0.1,0.2
		c-0.1,0-0.1,0-0.2-0.1C13.8,13.1,13.8,13.1,13.9,13C13.8,13.1,13.9,13,13.9,13z M14,49.5h0.2H14z M14.3,49.1L14.3,49.1L14.3,49.1
		C14.3,49.1,14.4,49.1,14.3,49.1C14.4,49.1,14.3,49.1,14.3,49.1z M14.3,10.3C14.2,10.3,14.2,10.3,14.3,10.3
		C14.2,10.2,14.3,10.2,14.3,10.3C14.3,10.3,14.3,10.3,14.3,10.3C14.3,10.3,14.3,10.3,14.3,10.3z M15,30.5c-0.2,0-0.3,0-0.4,0
		C14.7,30.5,14.8,30.5,15,30.5z M15.1,52.1C15.1,52.1,15.1,52.2,15.1,52.1L15.1,52.1c0.1,0,0.1,0,0.1,0S15.2,52.1,15.1,52.1z
		 M16,13.7c0,0-0.1,0-0.2,0C15.9,13.7,16,13.7,16,13.7z M16.2,46.9C16.1,47,16,47,16.2,46.9c0.1,0.1,0.2,0.1,0.3,0.1
		C16.4,47.1,16.2,47.1,16.2,46.9z M16.3,20.2c-0.2,0.1-0.3,0-0.4,0C16,20.2,16.2,20.2,16.3,20.2c0.1,0,0.1,0,0.2,0
		C16.4,20.2,16.4,20.2,16.3,20.2z M17,15.7c0.1,0,0.2-0.1,0.3-0.1C17.2,15.7,17.1,15.7,17,15.7z M17.8,5c0.1,0,0-0.1,0.1-0.1h0.3
		C18,4.9,17.9,5,17.8,5z M18.9,52.2h0.2H18.9z M19.2,26.4c-0.1,0-0.2,0-0.3,0c0.2,0,0.5-0.1,0.6-0.2c0.1-0.1,0.3-0.2,0.4-0.2
		c-0.1,0.1-0.2,0.2-0.4,0.2c0,0,0,0,0,0.1C19.5,26.3,19.3,26.4,19.2,26.4z M19.5,36.8C19.5,36.8,19.5,36.8,19.5,36.8
		C19.5,36.8,19.5,36.8,19.5,36.8z M19.7,39c0-0.1,0.1-0.2,0.3-0.2C19.9,38.9,19.8,38.9,19.7,39z M20.5,23.8l0.2-0.1
		C20.6,23.8,20.5,23.8,20.5,23.8z M20.9,46.6C20.9,46.6,20.9,46.6,20.9,46.6S20.9,46.6,20.9,46.6z M21.1,26.1
		C21.1,26.1,21.1,26.1,21.1,26.1C21.1,26.1,21.1,26.1,21.1,26.1c0.1,0,0.1,0,0.2,0C21.2,26.1,21.2,26.1,21.1,26.1z M22.1,16.8
		c0,0.1-0.1,0.1-0.2,0.1c0.1-0.1,0.1-0.1-0.1-0.2C22,16.8,22.1,16.8,22.1,16.8z M21.4,13C21.4,13,21.5,13,21.4,13c0.2,0,0.2,0,0.3,0
		C21.6,13,21.6,13,21.4,13C21.5,13,21.4,13,21.4,13z M21.7,18.5L21.7,18.5c0.1,0,0.1,0,0.1,0c0.1,0,0.2,0,0.4,0.1
		c-0.1,0-0.2-0.1-0.4-0.1C21.8,18.5,21.8,18.5,21.7,18.5z M23.3,6.5C23.3,6.5,23.3,6.4,23.3,6.5C23.3,6.4,23.3,6.5,23.3,6.5
		c0,0,0.2,0,0.3,0C23.5,6.5,23.3,6.5,23.3,6.5z M24.3,41.8c0.1-0.1,0.1-0.1,0.2-0.1C24.5,41.7,24.4,41.7,24.3,41.8z M24.6,19.1
		c0-0.1,0.2-0.1,0.2-0.2C24.8,19,24.6,19,24.6,19.1z M25,37C24.9,37,25,37,25,37C25,37,24.9,37,25,37z M24.9,12.3c0.1,0,0.2,0,0.3,0
		c0.1,0,0.1,0,0.1,0.1C25.2,12.3,25.1,12.3,24.9,12.3z M26,53C26,53,26,52.9,26,53C26,52.9,26,53,26,53z M27.1,40.3
		c0.1,0,0.1,0,0.2,0C27.2,40.3,27.2,40.3,27.1,40.3z M27.7,29.5C27.7,29.5,27.7,29.4,27.7,29.5C27.7,29.4,27.7,29.5,27.7,29.5z
		 M28.1,40.2c0.1,0,0.1,0.1,0.1,0.1c-0.1-0.1-0.2-0.1-0.4-0.1C27.9,40.2,28,40.2,28.1,40.2z M28.2,47.2
		C28.2,47.2,28.3,47.2,28.2,47.2C28.3,47.2,28.2,47.2,28.2,47.2z M28.2,8.1h0.3C28.5,8.2,28.3,8.1,28.2,8.1z M29,35.7
		c-0.1,0.1-0.1,0.1-0.1,0.2C28.8,35.9,28.9,35.8,29,35.7z M28.7,46.2c0.1-0.1,0.2-0.1,0.2-0.2l0.1-0.1c0.3,0,0.4-0.1,0.6-0.2
		C29.2,45.9,28.9,46.1,28.7,46.2z M29.4,31.9c-0.1,0-0.2,0.1-0.4,0.1c0.2-0.1,0.4-0.1,0.7-0.2C29.6,31.9,29.5,31.9,29.4,31.9z
		 M30.2,48.4C30.2,48.5,30.1,48.5,30.2,48.4L30.2,48.4z M31.7,7.2C31.7,7.2,31.7,7.2,31.7,7.2C31.7,7.2,31.7,7.2,31.7,7.2z
		 M33.6,15.4C33.6,15.5,33.6,15.5,33.6,15.4C33.5,15.5,33.5,15.4,33.6,15.4z M32.3,42.4c-0.1,0.1-0.1,0.1-0.3,0
		C32.1,42.4,32.3,42.4,32.3,42.4C32.4,42.3,32.4,42.3,32.3,42.4C32.4,42.3,32.4,42.4,32.3,42.4z M32.8,21.2c-0.1,0-0.2,0-0.3,0
		C32.6,21.2,32.7,21.2,32.8,21.2z M32.8,30.9c0-0.1,0.1-0.1,0.2-0.1c0,0,0,0,0,0c0,0,0,0,0,0L32.8,30.9z M32.8,8.6
		c0-0.1,0.1-0.1,0.2-0.1C32.9,8.5,32.8,8.6,32.8,8.6z M33.3,35.7c0.2,0,0.3,0,0.4,0.1C33.7,35.8,33.5,35.7,33.3,35.7z M35.3,10.3
		C35.3,10.3,35.3,10.3,35.3,10.3C35.3,10.3,35.3,10.3,35.3,10.3z M34.9,32.5c0,0-0.1,0-0.1,0c0,0,0,0-0.1,0.1c0,0,0,0,0.1-0.1
		c0.1-0.1,0.1-0.3,0.2-0.3c0,0,0,0.1,0.1,0.1C35.1,32.3,35.2,32.4,34.9,32.5z M35.4,33.8c-0.1,0-0.1,0-0.2,0
		C35.3,33.8,35.3,33.8,35.4,33.8C35.4,33.8,35.4,33.8,35.4,33.8S35.4,33.8,35.4,33.8z M35.7,38.8c0.1-0.1,0.2-0.1,0.3-0.1
		C35.9,38.7,35.8,38.7,35.7,38.8z M36.7,8.3c0,0,0.1,0,0.2-0.1C36.9,8.3,36.8,8.3,36.7,8.3z M37.2,25.6c0-0.1,0-0.1-0.2-0.1
		C37.1,25.5,37.1,25.5,37.2,25.6L37.2,25.6z M37.4,11h-0.1H37.4c0.1,0,0.1,0,0.2,0C37.5,11,37.5,11,37.4,11z M37.9,39.3
		c-0.1,0-0.2,0-0.2,0c0.2-0.1,0.3-0.1,0.4-0.1C38,39.2,37.9,39.2,37.9,39.3z M37.8,7.3c0.1-0.1,0.3-0.1,0.5-0.1
		C38.2,7.2,38,7.3,37.8,7.3z M40.5,14.3c0.1-0.1,0.2,0,0.3-0.1c-0.1,0.1-0.3,0.1-0.3,0.2C40.5,14.4,40.4,14.3,40.5,14.3z M40,20.5
		C40,20.5,40.1,20.5,40,20.5L40,20.5C39.9,20.6,39.9,20.5,40,20.5z M40,45.6c-0.1,0-0.3,0-0.3-0.1C39.8,45.5,39.9,45.6,40,45.6z
		 M39.7,23.5L39.7,23.5L39.7,23.5h-0.1H39.7z M39,53.5c0.3-0.1,0.6-0.1,0.9-0.1c0.1,0,0.2,0,0.4,0C39.8,53.5,39.4,53.5,39,53.5z
		 M40.4,52.2C40.4,52.2,40.4,52.3,40.4,52.2C40.4,52.3,40.4,52.2,40.4,52.2C40.4,52.2,40.5,52.2,40.4,52.2
		C40.5,52.3,40.4,52.3,40.4,52.2z M40.4,51.2L40.4,51.2c0.1,0.1,0.3,0.1,0.5,0.1C40.7,51.4,40.5,51.3,40.4,51.2z M41.3,12.2
		C41.3,12.1,41.4,12.1,41.3,12.2L41.3,12.2z M41.6,51.2L41.6,51.2c0,0,0,0,0.1-0.1C41.7,51.1,41.7,51.1,41.6,51.2z M42.9,49.8
		c0.1,0,0.2,0,0.3,0C43.1,49.8,43,49.8,42.9,49.8z M43.8,34.8c-0.1,0-0.2,0-0.3,0C43.6,34.7,43.7,34.7,43.8,34.8z M43.7,39.9
		C43.7,39.9,43.6,39.9,43.7,39.9C43.6,39.9,43.7,39.9,43.7,39.9c0,0,0.1,0,0.2-0.1c0,0,0.1,0,0.1,0c0,0-0.1,0-0.1,0
		C43.9,39.9,43.8,39.9,43.7,39.9z M44.4,22h-0.1H44.4C44.4,22,44.4,22,44.4,22C44.4,22,44.4,22,44.4,22z M44.8,7.8
		c0.1,0,0.1-0.1,0.2-0.1C45,7.8,44.9,7.8,44.8,7.8c-0.1,0-0.2,0.1-0.2,0.1C44.7,7.9,44.8,7.8,44.8,7.8z M45,34.9h-0.2H45z M44.9,53
		c0.1,0,0.1,0,0.2,0C45,53,45,53,44.9,53z M46.8,26.7C46.8,26.6,46.9,26.6,46.8,26.7L46.8,26.7z M45.5,8.1l0.1,0.1
		C45.5,8.2,45.5,8.2,45.5,8.1C45.5,8.1,45.5,8.1,45.5,8.1C45.5,8.1,45.5,8.1,45.5,8.1z M45.5,45.6C45.5,45.6,45.5,45.6,45.5,45.6
		C45.5,45.6,45.4,45.7,45.5,45.6C45.5,45.6,45.5,45.6,45.5,45.6c0,0.1,0.1,0.1,0.1,0.1C45.5,45.7,45.4,45.7,45.5,45.6z M45.5,9.5
		c0.2,0,0.3-0.1,0.4-0.1c-0.1,0-0.1,0.1-0.2,0.1C45.6,9.5,45.6,9.5,45.5,9.5z M46,13.2c0,0-0.1-0.1-0.2-0.1h0.3
		C46,13.2,46,13.2,46,13.2z M46.7,44.6C46.7,44.5,46.7,44.5,46.7,44.6C46.8,44.5,46.8,44.5,46.7,44.6C46.8,44.5,46.8,44.5,46.7,44.6
		L46.7,44.6z M46.7,32.8c-0.1,0-0.1,0-0.1-0.1c0.1,0.1,0.2,0.1,0.3,0.1C46.8,32.8,46.8,32.8,46.7,32.8z M47.4,49.5
		c0.2,0,0.3,0,0.4,0C47.7,49.5,47.6,49.5,47.4,49.5z M48.7,10.4C48.7,10.4,48.7,10.3,48.7,10.4C48.7,10.3,48.7,10.4,48.7,10.4z
		 M49.8,28.1c0.1,0,0.1,0,0.1,0.1c0,0-0.2,0-0.3,0C49.7,28.2,49.8,28.1,49.8,28.1z M49.9,32.2C49.9,32.2,49.9,32.2,49.9,32.2
		C49.9,32.2,49.9,32.2,49.9,32.2z M50.8,50.7C50.8,50.7,50.8,50.7,50.8,50.7c0-0.1,0-0.2-0.3-0.2C50.8,50.5,50.9,50.6,50.8,50.7
		C50.8,50.7,50.8,50.7,50.8,50.7z M51.2,53.9c0.1-0.1,0.2-0.1,0.4-0.1C51.5,53.9,51.4,53.9,51.2,53.9z M51.1,46.7
		c0.1,0,0-0.1,0.1-0.1c0.1,0,0.2,0,0.2,0c0.1,0,0.1,0,0.2,0C51.5,46.6,51.3,46.7,51.1,46.7z M51.9,13.9
		C51.9,13.9,51.9,13.9,51.9,13.9C52,13.9,52,13.9,51.9,13.9C52,13.9,52,13.9,51.9,13.9L51.9,13.9z M53.1,7.4
		c0.1-0.1,0.2-0.1,0.4-0.1C53.4,7.3,53.2,7.3,53.1,7.4z M53.9,28.5c0,0,0.1-0.1,0.2-0.1C54,28.5,54,28.5,53.9,28.5z M54.8,25.2
		c-0.1,0.1-0.3,0.1-0.3,0C54.6,25.2,54.7,25.2,54.8,25.2c0,0,0.1,0,0.1,0C54.9,25.2,54.8,25.2,54.8,25.2z M56,50.9L56,50.9
		c0.1,0,0.1,0,0.2,0.1C56.1,50.9,56,50.9,56,50.9z M56.5,9.5C56.5,9.5,56.6,9.4,56.5,9.5C56.6,9.4,56.5,9.5,56.5,9.5
		c0-0.1-0.1-0.1-0.3-0.1C56.3,9.3,56.4,9.3,56.5,9.5z M56.3,27.7c0.2-0.1,0.2-0.1,0.4-0.2c0.1,0,0.1,0,0.3,0
		C56.8,27.5,56.5,27.6,56.3,27.7z M58,10l-0.3-0.1C57.8,9.9,57.9,10,58,10z M58,50.9c0-0.1,0.1-0.1,0.2-0.1
		C58.1,50.8,58.1,50.8,58,50.9z M61.5,29.3C61.5,29.3,61.4,29.3,61.5,29.3C61.4,29.3,61.5,29.3,61.5,29.3l-0.1,0.1
		C61.4,29.4,61.4,29.3,61.5,29.3z M58.9,26.9h0.2c-0.2,0-0.2,0.1-0.3,0.1C58.8,27,58.8,26.9,58.9,26.9z M58.8,52.5h0.1H58.8z
		 M59.7,32.9c-0.1,0-0.3,0-0.4,0c-0.1,0-0.1,0-0.2,0c0,0,0,0,0,0c0,0,0,0,0,0c0,0,0.1,0,0.2,0C59.5,32.8,59.7,32.8,59.7,32.9
		C59.7,32.9,59.7,32.9,59.7,32.9z M60.4,33.1C60.4,33,60.4,33,60.4,33.1C60.4,33,60.4,33,60.4,33.1z M60,26.9c0.2,0,0.3,0.1,0.4,0.1
		C60.3,27,60.2,27,60,26.9z M61,47.7c0.3,0,0.4-0.1,0.6-0.1C61.4,47.7,61.2,47.7,61,47.7z M63.1,51.2h0.2H63.1z M64.2,8.2
		C64.1,8.2,64.2,8.2,64.2,8.2c0-0.1,0-0.1,0.1-0.1C64.3,8.1,64.2,8.2,64.2,8.2C64.2,8.2,64.2,8.2,64.2,8.2z M64,7.6h0.3H64z
		 M65.1,12.3C65.1,12.3,65,12.3,65.1,12.3c-0.2,0.1-0.2,0.1-0.2,0.1C64.8,12.4,64.9,12.4,65.1,12.3C65,12.3,65.1,12.3,65.1,12.3z
		 M64.8,52c0.1,0,0.3-0.1,0.5-0.1C65.1,51.9,65,52,64.8,52z M65.6,17.1c-0.2,0.1-0.3,0.1-0.5,0.1C65.2,17.2,65.4,17.2,65.6,17.1
		C65.6,17.2,65.5,17.2,65.6,17.1z M68.4,12.7c0.1,0,0.1,0,0.2,0C68.5,12.7,68.5,12.7,68.4,12.7c0,0.1,0,0.1-0.1,0.1
		C68.3,12.8,68.4,12.8,68.4,12.7C68.4,12.7,68.4,12.7,68.4,12.7z M68.6,14.8C68.6,14.9,68.5,14.9,68.6,14.8L68.6,14.8z M67.7,51.3
		c0.2,0,0.5,0,0.7,0C68.2,51.3,67.9,51.3,67.7,51.3z M68.6,50.6C68.6,50.6,68.6,50.5,68.6,50.6C68.6,50.5,68.7,50.5,68.6,50.6z
		 M70,16.6c0.1-0.1,0.3-0.1,0.4-0.1C70.3,16.6,70.1,16.6,70,16.6z M71.1,27.3c0-0.1,0-0.1,0.1-0.1c0.1,0,0.3,0,0.3,0
		C71.3,27.2,71.2,27.2,71.1,27.3z M71.6,8.4c0.1,0,0.2,0,0.4-0.1C71.8,8.4,71.7,8.4,71.6,8.4z M72.7,48h0.2H72.7z M73.1,10.1h0.1
		H73.1z M73.6,50c0-0.1,0.1-0.2,0.3-0.2C73.7,49.9,73.6,49.9,73.6,50z M74.8,14.2c-0.1-0.1-0.2-0.1-0.4-0.1h0.1
		C74.6,14,74.9,14.1,74.8,14.2z M75,8.7C75,8.6,75,8.6,75,8.7C75,8.6,75,8.6,75,8.7z M75.2,8.8h0.2H75.2z M75.6,28
		C75.6,28,75.6,28,75.6,28C75.6,28,75.6,28,75.6,28C75.6,28,75.7,28,75.6,28C75.7,28,75.6,28,75.6,28z M76.2,39.3
		C76.2,39.3,76.2,39.2,76.2,39.3c0,0,0,0-0.1-0.1L76.2,39.3C76.2,39.2,76.2,39.3,76.2,39.3z M76.6,49.6L76.6,49.6c0.1,0,0.1,0,0.2,0
		C76.7,49.6,76.7,49.6,76.6,49.6z M77.2,18L77.2,18L77.2,18C77,18,77,18.1,76.9,18.1C77,18,77,18,77.2,18C77.1,18,77.2,18,77.2,18
		l0.1-0.1C77.3,17.9,77.2,17.9,77.2,18z M77.6,9.5C77.6,9.5,77.6,9.5,77.6,9.5C77.6,9.5,77.6,9.5,77.6,9.5z M77.5,13.2
		C77.4,13.2,77.4,13.1,77.5,13.2C77.4,13.1,77.4,13.2,77.5,13.2c0.1,0,0.2,0.1,0.2,0.1C77.6,13.3,77.5,13.2,77.5,13.2z M79,12.9
		C79,13,79,12.9,79,12.9C79,12.9,79,13,79,12.9z M80.7,26.9c0,0.1-0.1,0.1-0.2,0.1C80.5,27,80.6,26.9,80.7,26.9z M80.6,51.8
		c0.1-0.1,0.1-0.1,0.2-0.1L80.6,51.8z M81.7,47.3c0.1,0,0.2,0,0.2,0S81.8,47.3,81.7,47.3z M82.1,51.6c0,0,0,0,0.1,0
		C82.1,51.6,82.1,51.6,82.1,51.6z M82.2,44.3h0.2H82.2z M82.9,25c0,0,0,0-0.1,0c0.2-0.1,0.3-0.1,0.5-0.1C83.1,24.9,83,24.9,82.9,25z
		 M84.8,36.6C84.8,36.5,84.8,36.6,84.8,36.6C84.8,36.6,84.8,36.5,84.8,36.6z M84.2,35.1C84.2,35.1,84.2,35.1,84.2,35.1
		c-0.1,0.1-0.1,0.1-0.1,0.1C84.1,35.2,84.1,35.2,84.2,35.1c0,0,0-0.1,0-0.2C84.4,35,84.3,35.1,84.2,35.1z M84.9,51.1
		c-0.3,0-0.3-0.1-0.3-0.1c0.1,0.1,0.3,0.1,0.5,0.1C85,51.1,85,51.1,84.9,51.1z M90.9,22.5C90.9,22.5,90.9,22.4,90.9,22.5
		C90.9,22.4,90.9,22.5,90.9,22.5C90.9,22.5,90.9,22.5,90.9,22.5C90.9,22.5,90.9,22.5,90.9,22.5z M89.9,8.6c0.1,0,0.1,0,0.2,0
		C90,8.6,90,8.6,89.9,8.6z M90.3,11.8c0.1,0,0.2-0.1,0.2-0.2c0.1,0,0.1,0,0.2,0C90.6,11.7,90.5,11.8,90.3,11.8z M91,50.5
		c-0.1,0-0.1,0-0.3-0.1C90.9,50.4,91,50.4,91,50.5C91.1,50.5,91,50.6,91,50.5z M92.2,52.5c-0.1,0-0.1-0.1-0.1-0.1
		c0.1,0,0.2,0,0.4,0.1C92.4,52.5,92.3,52.5,92.2,52.5z M93.8,38.4c0,0,0-0.1,0.1-0.2C93.9,38.3,93.9,38.4,93.8,38.4z M95.1,53.9
		c-0.1,0-0.2,0-0.4,0C94.9,53.9,95,53.9,95.1,53.9c0,0,0.1,0,0.1,0C95.2,53.9,95.1,53.9,95.1,53.9z M95.5,24.2c0.1,0,0.1,0,0.2,0
		C95.6,24.2,95.6,24.2,95.5,24.2z M96.8,7h-0.2H96.8z M96.3,48.9c0.2-0.1,0.3-0.1,0.4-0.1c0.1,0,0.1,0,0.2,0
		C96.7,48.8,96.5,48.8,96.3,48.9z M97.8,27.5c-0.1,0-0.1-0.1,0.1-0.1c0.1,0,0.1,0,0.2,0C98,27.4,97.9,27.4,97.8,27.5z M98.4,29
		c0,0,0-0.1-0.1-0.1C98.4,28.9,98.5,29,98.4,29z M99.2,7.8c0-0.1-0.1-0.1,0.1-0.2C99.3,7.7,99.2,7.7,99.2,7.8z M99.4,7.9h0.2H99.4z
		 M100.5,48.8C100.4,48.8,100.4,48.8,100.5,48.8C100.4,48.6,100.5,48.7,100.5,48.8C100.4,48.8,100.4,48.8,100.5,48.8z M101,48.9
		L101,48.9L101,48.9L101,48.9L101,48.9z M101.1,35.6c-0.1,0-0.2,0-0.3,0C100.9,35.6,101,35.6,101.1,35.6
		C101.2,35.6,101.1,35.6,101.1,35.6S101.2,35.6,101.1,35.6z M100.6,27.8c0,0,0,0,0.1-0.1c0.2,0,0.4-0.1,0.5-0.2c0.1,0,0.1,0,0.1,0
		C101.1,27.6,100.9,27.7,100.6,27.8z M101.5,4.9c0.3-0.1,0.5-0.1,0.8-0.1C102,4.8,101.7,4.9,101.5,4.9z M102.2,15.6l0.3,0.2
		C102.2,15.7,102.2,15.7,102.2,15.6z M103.2,6.2c0,0,0,0-0.1,0C103.2,6.2,103.2,6.2,103.2,6.2z M103.4,15.8c-0.1,0.1-0.3,0.1-0.4,0
		C103.2,15.8,103.3,15.8,103.4,15.8C103.4,15.7,103.4,15.7,103.4,15.8C103.5,15.7,103.4,15.7,103.4,15.8
		C103.4,15.7,103.4,15.8,103.4,15.8z M104.4,24.3C104.4,24.3,104.5,24.3,104.4,24.3C104.5,24.3,104.4,24.3,104.4,24.3z M104.6,17.1
		C104.6,17.1,104.6,17.1,104.6,17.1S104.6,17.1,104.6,17.1h0.1H104.6z M106.8,51.5c0.1-0.1,0.2,0,0.3-0.1c0,0,0,0,0.1,0
		C107,51.5,107,51.5,106.8,51.5z M107.5,25.7c0.1,0,0.1,0,0.2,0.1C107.6,25.7,107.5,25.7,107.5,25.7z M107.6,16.4h0.1H107.6z
		 M110.7,5.8c0.1,0,0.2,0,0.3,0C110.9,5.8,110.8,5.8,110.7,5.8z M111.2,36L111.2,36C111.3,36,111.3,36,111.2,36z M112,11
		C112,11,112,10.9,112,11C112,10.9,112,11,112,11z M111.7,7.5l-0.1-0.1C111.6,7.4,111.7,7.4,111.7,7.5z M112,44.9
		c-0.1,0-0.2,0.1-0.3,0.1C111.8,44.9,111.9,44.9,112,44.9z M111.9,46.4c0.1,0,0.2,0,0.3,0C112.1,46.4,112,46.5,111.9,46.4z
		 M112.5,39.8L112.5,39.8C112.4,39.8,112.5,39.8,112.5,39.8c0.2-0.1,0.3-0.1,0.4-0.1C112.7,39.8,112.6,39.8,112.5,39.8
		C112.5,39.8,112.5,39.8,112.5,39.8z M119.7,34c0.1,0,0.2,0.1,0.3,0.1C120,34.1,119.8,34.1,119.7,34z M120.3,14.4
		c-0.1,0-0.1-0.1-0.3-0.1C120.2,14.3,120.3,14.3,120.3,14.4C120.3,14.4,120.4,14.4,120.3,14.4C120.4,14.4,120.3,14.4,120.3,14.4z
		 M121.5,24.2c0.3-0.1,0.4-0.1,0.5-0.1c0,0,0.1,0,0.1-0.1c0,0-0.1,0.1-0.1,0.1C121.9,24.1,121.7,24.2,121.5,24.2z M123,44.3
		c0.1,0,0.1,0,0.2,0C123.1,44.3,123.1,44.3,123,44.3z M124,14.7c0,0.1-0.2,0.1-0.3,0.1c0.2-0.1,0.3-0.1,0.4-0.2
		C124,14.7,124,14.7,124,14.7z M124.6,15.4C124.6,15.3,124.6,15.3,124.6,15.4C124.6,15.3,124.6,15.3,124.6,15.4z M126.3,13.4
		c-0.1,0.1-0.2,0.2-0.3,0.3c0.1-0.1,0.3-0.3,0.3-0.4V13.4z M127.4,20.2C127.4,20.2,127.4,20.2,127.4,20.2S127.4,20.2,127.4,20.2z
		 M127.9,49.2c0,0,0.1,0,0.2,0C128,49.2,128,49.3,127.9,49.2z M128.4,24.8h-0.1H128.4L128.4,24.8L128.4,24.8z M129.1,47.9
		c0,0,0.1,0,0.1,0.1C129.2,48,129.1,48,129.1,47.9z M131.1,26.3c0-0.1,0.2-0.1,0.3-0.1C131.3,26.3,131.2,26.3,131.1,26.3z
		 M131.6,38.2C131.6,38.1,131.6,38.1,131.6,38.2C131.6,38.1,131.6,38.1,131.6,38.2z M132,38.3c0,0,0,0,0.1,0
		C132,38.3,132,38.3,132,38.3z M131.8,21.5c0.2-0.1,0.4-0.1,0.7-0.1C132.2,21.4,132,21.4,131.8,21.5z M134.2,44.6
		C134.3,44.6,134.3,44.6,134.2,44.6C134.3,44.6,134.3,44.6,134.2,44.6z M134.8,7.1C134.8,7,134.8,7.1,134.8,7.1
		C134.8,7,134.9,7.1,134.8,7.1C134.8,7.1,134.8,7,134.8,7.1z M134.7,35.8c0.1,0,0.2-0.1,0.2-0.1C134.9,35.8,134.8,35.8,134.7,35.8z
		 M135.3,25.4L135.3,25.4L135.3,25.4c0,0,0.1,0,0.1,0C135.4,25.4,135.3,25.4,135.3,25.4z M135.7,46.2c0-0.1-0.1-0.1,0-0.2V46.2z
		 M136.2,22.8c0.1,0,0.1,0,0.2-0.1c0.1,0.1,0.2,0,0.3,0C136.6,22.8,136.4,22.8,136.2,22.8z M138,48.6l-0.1,0.1L138,48.6z M138,49
		c0.1,0,0.2-0.1,0.4,0C138.2,49,138.1,49,138,49z M138.4,21.6L138.4,21.6L138.4,21.6z M139.6,8.5c-0.1,0-0.1,0-0.2,0
		C139.5,8.5,139.5,8.5,139.6,8.5c0,0,0.1,0,0.1,0c0.1,0,0.1,0,0.1,0.1C139.7,8.5,139.7,8.5,139.6,8.5z M140.6,40.4
		c0.1-0.1,0.2-0.1,0.3-0.1C140.7,40.4,140.6,40.4,140.6,40.4z M142.2,42.6C142.1,42.6,142.1,42.6,142.2,42.6c-0.2,0-0.2,0-0.3,0
		C142,42.6,142,42.6,142.2,42.6C142.1,42.6,142.1,42.6,142.2,42.6C142.2,42.6,142.2,42.6,142.2,42.6
		C142.2,42.6,142.2,42.6,142.2,42.6z M142.6,34.9c0.2-0.1,0.2-0.1,0.2-0.1C142.7,34.9,142.7,34.9,142.6,34.9z M144.2,42.1h0.2H144.2
		z M145.5,39.7c0.1,0,0.2,0,0.2,0.1C145.6,39.8,145.6,39.8,145.5,39.7z M146.5,22c0.1,0,0.1,0,0.1,0c0.1,0,0.2-0.1,0.3-0.1
		c0,0.1-0.1,0.2-0.3,0.1C146.6,22,146.5,22,146.5,22L146.5,22z M146.4,37.6c0,0,0,0-0.1,0C146.4,37.6,146.4,37.6,146.4,37.6
		C146.5,37.6,146.5,37.6,146.4,37.6C146.5,37.6,146.5,37.6,146.4,37.6z M146.8,33.9c-0.1,0-0.1,0-0.2,0c-0.2,0-0.3,0-0.4,0
		c0.1,0,0.2,0,0.4,0C146.7,33.9,146.7,33.9,146.8,33.9s0.1,0,0.2,0C146.9,33.9,146.9,33.9,146.8,33.9z M147.3,9.8
		c0.1,0,0.1,0,0.2,0.1C147.4,9.9,147.4,9.9,147.3,9.8z M151,12.6C151,12.6,151.1,12.6,151,12.6C151.1,12.6,151,12.6,151,12.6z
		 M151.3,24.3c0.1,0.1,0.1,0.1,0.2,0.1C151.4,24.4,151.4,24.4,151.3,24.3z M152,18.7c-0.1,0.1-0.5,0.2-0.6,0.3
		C151.5,18.9,151.8,18.8,152,18.7c0.1-0.1,0.1-0.1,0.1-0.1C152.1,18.6,152.1,18.6,152,18.7C152,18.7,152,18.7,152,18.7z M152.4,16
		c0,0-0.1,0.1-0.1,0.1C152.3,16.1,152.4,16,152.4,16c0.1-0.1,0.2-0.1,0.4-0.2C152.7,15.9,152.5,15.9,152.4,16z M154.3,32.5h0.1
		c0,0,0,0.1,0,0c0,0,0,0,0,0S154.4,32.6,154.3,32.5z M154,46.8C153.9,46.8,153.9,46.8,154,46.8l-0.2,0
		C153.8,46.8,153.9,46.8,154,46.8c0.1-0.1,0.2-0.2,0.5-0.2C154.3,46.7,154.1,46.7,154,46.8z M154.3,30.9c0.1,0,0.2,0,0.3,0
		c0.1,0,0.1,0.1,0.1,0.1C154.7,30.9,154.5,30.9,154.3,30.9z M154.5,21.8c0.2-0.1,0.3-0.1,0.6-0.1C154.9,21.7,154.7,21.8,154.5,21.8z
		 M155.6,29.5c0,0,0,0-0.1,0c0.1-0.1,0.3-0.1,0.3,0C155.8,29.5,155.7,29.5,155.6,29.5z M156.6,36.4
		C156.6,36.4,156.6,36.4,156.6,36.4C156.6,36.4,156.6,36.4,156.6,36.4z M158.3,35.6c0.2,0,0.3,0,0.4-0.1
		C158.7,35.6,158.5,35.6,158.3,35.6z M159.6,28.5c0.1,0,0.1-0.1,0.2-0.1c0,0,0.1,0,0.1,0.1C159.8,28.4,159.8,28.4,159.6,28.5z
		 M160.5,16.7C160.5,16.7,160.4,16.7,160.5,16.7C160.4,16.7,160.5,16.7,160.5,16.7l-0.2-0.3C160.5,16.5,160.5,16.5,160.5,16.7
		L160.5,16.7z M163.3,38.3l0.1-0.1c0.1,0,0.2,0,0.2,0C163.5,38.2,163.4,38.2,163.3,38.3z M163.2,10.9c0.2,0,0.3,0,0.4,0.1
		C163.5,10.9,163.4,10.9,163.2,10.9z M165.3,15.3c0.1,0,0.3,0,0.4,0.1C165.6,15.4,165.5,15.3,165.3,15.3z M167.9,12.4
		C167.9,12.4,167.9,12.4,167.9,12.4S167.9,12.4,167.9,12.4z M168.6,13.1c0.1,0,0.2,0.1,0.4,0.2C168.8,13.3,168.7,13.2,168.6,13.1z
		 M169.2,13c-0.1-0.1-0.1-0.1-0.2-0.2C169.1,12.9,169.1,12.9,169.2,13z M169.1,43.5c0.1,0,0.1,0,0.2,0
		C169.2,43.6,169.1,43.6,169.1,43.5z M170.2,35.8c-0.1,0-0.1,0-0.2,0C170.1,35.8,170.1,35.8,170.2,35.8z M170.2,42.7L170.2,42.7
		L170.2,42.7z M170.4,35.5c0-0.1-0.1-0.1-0.1-0.1C170.4,35.4,170.5,35.4,170.4,35.5L170.4,35.5z M173.1,13.3h0.2H173.1z M173.8,32
		c0.1-0.1,0.1-0.1,0.1-0.1S173.9,32,173.8,32z M178,18.2c0.1,0,0.3,0,0.5,0C178.4,18.3,178.2,18.3,178,18.2z M178.5,40.4
		c0.1,0,0.1-0.1,0.2-0.1C178.6,40.3,178.6,40.4,178.5,40.4z M179.3,15.9c-0.1,0-0.1,0-0.2-0.1c-0.1,0-0.2,0-0.3,0c0.1,0,0.2,0,0.3,0
		c0.2,0,0.3,0.1,0.5,0.1C179.5,15.9,179.4,15.9,179.3,15.9z M185.5,39.6c0.1,0,0.1,0,0.2,0C185.6,39.6,185.6,39.6,185.5,39.6z
		 M186.3,28.4c0,0.1,0.1,0.1,0.5,0.1C186.4,28.5,186.1,28.5,186.3,28.4z M186.7,39.5c0.1-0.1,0.2-0.1,0.4-0.1
		C187,39.4,186.9,39.4,186.7,39.5z M190.5,38.4c0.2-0.1,0.4-0.1,0.6-0.1C190.9,38.3,190.7,38.3,190.5,38.4z M202.4,29.2
		c0,0,0.1,0.1,0.3,0.1C202.5,29.3,202.4,29.3,202.4,29.2z"/>
	<path class="st1" d="M202.7,29.3c-0.2,0-0.3-0.1-0.3-0.1C202.4,29.3,202.5,29.3,202.7,29.3z"/>
	<path class="st1" d="M13.9,13C13.9,13,13.8,13.1,13.9,13C13.9,13.1,13.9,13.1,13.9,13z"/>
	<path class="st1" d="M185.3,17.7C185.3,17.7,185.3,17.7,185.3,17.7c0,0,0.1,0,0.1,0H185.3z"/>
	<path class="st1" d="M155.5,29.5c0.1,0,0.1,0,0.1,0c0.1,0,0.2,0,0.2,0C155.8,29.4,155.6,29.4,155.5,29.5z"/>
	<path class="st1" d="M81.5,54.4c-0.3,0-0.6,0-1,0.1h0.1C80.9,54.5,81.2,54.5,81.5,54.4z"/>
	<path class="st1" d="M173.9,31.9c0,0,0,0-0.1,0.1C173.9,32,173.9,31.9,173.9,31.9z"/>
	<path class="st1" d="M155.1,21.7c-0.3,0-0.4,0-0.6,0.1C154.7,21.8,154.9,21.7,155.1,21.7z"/>
	<path class="st1" d="M7.4,12.4l0.1-0.1C7.5,12.3,7.4,12.3,7.4,12.4z"/>
	<path class="st1" d="M160.3,16.4l0.2,0.3C160.5,16.5,160.5,16.5,160.3,16.4z"/>
	<path class="st1" d="M-4.1,43C-4,43.1-4,43-4.1,43L-4.1,43z"/>
	<path class="st1" d="M158.7,35.5c-0.1,0.1-0.2,0.1-0.4,0.1C158.5,35.6,158.7,35.6,158.7,35.5z"/>
	<path class="st1" d="M178.7,40.3c-0.1,0-0.1,0.1-0.2,0.1C178.6,40.4,178.6,40.3,178.7,40.3z"/>
	<path class="st1" d="M15.1,52.1L15.1,52.1C15.1,52.2,15.1,52.1,15.1,52.1z"/>
	<path class="st1" d="M154.5,46.6c-0.3,0-0.5,0.1-0.5,0.2C154.1,46.7,154.3,46.7,154.5,46.6z"/>
	<path class="st1" d="M12.2,48.7C12.2,48.6,12.3,48.6,12.2,48.7C12.2,48.6,12.2,48.6,12.2,48.7z"/>
	<path class="st1" d="M12.3,19C12.3,19,12.3,19,12.3,19C12.3,19,12.3,19,12.3,19z"/>
	<path class="st1" d="M12.9,3C12.9,3,13,3,12.9,3c0-0.1-0.1,0-0.2,0C12.8,3,12.8,3,12.9,3z"/>
	<path class="st1" d="M179.3,15.9c0.1,0,0.2,0,0.3,0c-0.2,0-0.3,0-0.5-0.1C179.2,15.9,179.2,15.9,179.3,15.9z"/>
	<path class="st1" d="M-12.2,30.1C-12.2,30.1-12.1,30.2-12.2,30.1C-12.1,30.1-12.1,30.1-12.2,30.1z"/>
	<path class="st1" d="M152,18.7C152,18.7,152,18.7,152,18.7c-0.2,0.1-0.5,0.2-0.6,0.3C151.5,18.9,151.9,18.8,152,18.7z"/>
	<path class="st1" d="M93.9,38.2c-0.1,0.1-0.1,0.2-0.1,0.2C93.9,38.4,93.9,38.3,93.9,38.2z"/>
	<path class="st1" d="M59.3,32.9c0.1,0,0.3,0,0.4,0c0,0,0,0,0.1,0C59.7,32.8,59.5,32.8,59.3,32.9z"/>
	<path class="st1" d="M52,13.9L52,13.9C52,13.9,52,13.9,52,13.9C52,13.9,52,13.9,52,13.9z"/>
	<path class="st1" d="M84.1,35.2C84.1,35.2,84.1,35.2,84.1,35.2C84.1,35.2,84.1,35.2,84.1,35.2z"/>
	<path class="st1" d="M82.9,25c0.1-0.1,0.2-0.1,0.4-0.1c-0.2,0-0.3,0-0.5,0.1C82.9,25,82.9,25,82.9,25z"/>
	<path class="st1" d="M77.7,13.3c-0.1-0.1-0.2-0.1-0.2-0.1C77.5,13.2,77.6,13.3,77.7,13.3z"/>
	<path class="st1" d="M53.5,7.3c-0.2,0-0.3,0-0.4,0.1C53.2,7.3,53.4,7.3,53.5,7.3z"/>
	<path class="st1" d="M45.6,8.2l-0.1-0.1C45.5,8.2,45.5,8.2,45.6,8.2z"/>
	<path class="st1" d="M45.5,45.6C45.4,45.7,45.5,45.6,45.5,45.6L45.5,45.6z"/>
	<path class="st1" d="M51.6,53.8c-0.2,0-0.3,0-0.4,0.1C51.4,53.9,51.5,53.9,51.6,53.8z"/>
	<path class="st1" d="M100.7,27.7c-0.1,0.1-0.1,0.1-0.1,0.1c0.3-0.1,0.5-0.2,0.7-0.3c0,0,0,0-0.1,0
		C101.1,27.6,100.9,27.7,100.7,27.7z"/>
	<path class="st1" d="M99.2,7.8c0-0.1,0.1-0.1,0.1-0.2C99.1,7.7,99.2,7.7,99.2,7.8z"/>
	<path class="st1" d="M77.3,17.9L77.2,18C77.2,17.9,77.3,17.9,77.3,17.9z"/>
	<path class="st1" d="M65.6,17.1c-0.2,0.1-0.4,0.1-0.5,0.1C65.3,17.2,65.4,17.2,65.6,17.1z"/>
	<path class="st1" d="M68.4,12.7C68.4,12.8,68.3,12.8,68.4,12.7C68.4,12.8,68.4,12.8,68.4,12.7z"/>
	<path class="st1" d="M68.6,14.8C68.5,14.9,68.6,14.9,68.6,14.8L68.6,14.8z"/>
	<path class="st1" d="M65.6,17.1C65.5,17.2,65.6,17.2,65.6,17.1L65.6,17.1z"/>
	<path class="st1" d="M76.2,39.2h-0.1C76.2,39.3,76.2,39.3,76.2,39.2z"/>
	<path class="st1" d="M65.3,51.9c-0.2,0-0.4,0.1-0.5,0.1C65,52,65.1,51.9,65.3,51.9z"/>
	<path class="st1" d="M64.2,8.2C64.2,8.2,64.3,8.1,64.2,8.2C64.2,8.1,64.2,8.1,64.2,8.2z"/>
	<path class="st1" d="M60.4,27c-0.1,0-0.2-0.1-0.4-0.1C60.2,27,60.3,27,60.4,27z"/>
	<path class="st1" d="M77.1,18c-0.1,0-0.1,0-0.2,0.1C77,18.1,77,18,77.1,18z"/>
	<path class="st1" d="M65,12.4C65,12.3,65.1,12.3,65,12.4C65.1,12.3,65,12.3,65,12.4z"/>
	<path class="st1" d="M46.8,26.7C46.9,26.6,46.8,26.6,46.8,26.7L46.8,26.7z"/>
	<path class="st1" d="M146.6,22c0,0-0.1,0-0.1,0h-0.1C146.5,22,146.6,22,146.6,22z"/>
	<path class="st1" d="M29,35.7c-0.1,0.1-0.2,0.2-0.1,0.2C28.9,35.8,28.9,35.8,29,35.7z"/>
	<path class="st1" d="M134.9,35.7c0,0-0.1,0.1-0.2,0.1C134.8,35.8,134.9,35.8,134.9,35.7z"/>
	<path class="st1" d="M30.2,48.4C30.1,48.5,30.2,48.5,30.2,48.4L30.2,48.4z"/>
	<path class="st1" d="M33.6,15.4C33.5,15.4,33.5,15.5,33.6,15.4C33.6,15.5,33.6,15.5,33.6,15.4z"/>
	<path class="st1" d="M131.1,26.3c0.1,0,0.2,0,0.3-0.1C131.3,26.2,131.1,26.2,131.1,26.3z"/>
	<path class="st1" d="M24.5,41.7c-0.1,0-0.1,0-0.2,0.1C24.4,41.7,24.5,41.7,24.5,41.7z"/>
	<path class="st1" d="M16.2,46.9C16,47,16.1,47,16.2,46.9L16.2,46.9z"/>
	<path class="st1" d="M21.8,18.5c0.2,0,0.3,0.1,0.4,0.1C22.1,18.5,22,18.5,21.8,18.5z"/>
	<path class="st1" d="M147.5,9.9c-0.1-0.1-0.1-0.1-0.2-0.1C147.4,9.9,147.4,9.9,147.5,9.9z"/>
	<path class="st1" d="M139.4,8.5c0.1,0,0.1,0,0.2,0C139.5,8.5,139.5,8.5,139.4,8.5z"/>
	<path class="st1" d="M19.9,26c-0.1,0.1-0.2,0.1-0.4,0.2C19.7,26.2,19.8,26.1,19.9,26z"/>
	<path class="st1" d="M106.8,51.5c0.2,0,0.2,0,0.4-0.1c-0.1,0-0.1,0-0.1,0C107,51.5,106.9,51.4,106.8,51.5z"/>
	<path class="st1" d="M112.2,46.4c-0.1,0-0.2,0-0.3,0C112,46.5,112.1,46.4,112.2,46.4z"/>
	<path class="st1" d="M45,7.7c0,0-0.1,0.1-0.2,0.1C44.9,7.8,45,7.8,45,7.7z"/>
	<path class="st1" d="M39,53.5c0.4,0,0.8,0,1.3-0.1c-0.2,0-0.3,0-0.4,0C39.6,53.4,39.3,53.4,39,53.5z"/>
	<path class="st1" d="M43.9,39.8c-0.1,0.1-0.2,0.1-0.2,0.1C43.8,39.9,43.9,39.9,43.9,39.8z"/>
	<path class="st1" d="M103.4,15.7C103.4,15.7,103.5,15.7,103.4,15.7C103.4,15.7,103.4,15.7,103.4,15.7z"/>
	<path class="st1" d="M36.9,8.2c-0.1,0.1-0.2,0.1-0.2,0.1C36.8,8.3,36.9,8.3,36.9,8.2z"/>
	<path class="st1" d="M32.4,42.3C32.4,42.3,32.4,42.3,32.4,42.3C32.4,42.4,32.4,42.3,32.4,42.3z"/>
	<path class="st1" d="M34.8,32.5C34.7,32.6,34.7,32.6,34.8,32.5C34.7,32.6,34.7,32.6,34.8,32.5z"/>
	<path class="st1" d="M112.5,39.8c0.1,0,0.2,0,0.4-0.1C112.8,39.7,112.7,39.7,112.5,39.8z"/>
	<path class="st1" d="M120,34.1c-0.1,0-0.2-0.1-0.3-0.1C119.8,34.1,120,34.1,120,34.1z"/>
	<path class="st1" d="M122,24.1c-0.1,0-0.2,0.1-0.5,0.1C121.7,24.2,121.9,24.1,122,24.1z"/>
</g>
</svg>
